-- Merging decision tree log ---
manifest
ADDED from C:\Users\daniel\Desktop\Robotics\roadrunner\road-runner-quickstart\TeamCode\src\main\AndroidManifest.xml:8:1-12:12
INJECTED from C:\Users\daniel\Desktop\Robotics\roadrunner\road-runner-quickstart\TeamCode\src\main\AndroidManifest.xml:8:1-12:12
INJECTED from C:\Users\daniel\Desktop\Robotics\roadrunner\road-runner-quickstart\TeamCode\src\main\AndroidManifest.xml:8:1-12:12
INJECTED from C:\Users\daniel\Desktop\Robotics\roadrunner\road-runner-quickstart\TeamCode\src\main\AndroidManifest.xml:8:1-12:12
MERGED from [:FtcRobotController] C:\Users\daniel\Desktop\Robotics\roadrunner\road-runner-quickstart\FtcRobotController\build\intermediates\library_manifest\debug\AndroidManifest.xml:2:1-67:12
MERGED from [com.acmerobotics.dashboard:dashboard:0.4.0] C:\Users\daniel\.gradle\caches\transforms-2\files-2.1\c503889d782e8f92548721dc6d0e23e2\jetified-dashboard-0.4.0\AndroidManifest.xml:2:1-9:12
MERGED from [org.firstinspires.ftc:RobotCore:6.1.1] C:\Users\daniel\.gradle\caches\transforms-2\files-2.1\a1e640aef899fd475a91d3fc3efdadd1\jetified-RobotCore-6.1.1\AndroidManifest.xml:2:1-130:12
MERGED from [org.firstinspires.ftc:Hardware:6.1.1] C:\Users\daniel\.gradle\caches\transforms-2\files-2.1\86ceccc0a0031172a0ffc6b933ac3893\jetified-Hardware-6.1.1\AndroidManifest.xml:2:1-11:12
MERGED from [org.firstinspires.ftc:FtcCommon:6.1.1] C:\Users\daniel\.gradle\caches\transforms-2\files-2.1\8e1e0b436de64edfed69fee3d461afb8\jetified-FtcCommon-6.1.1\AndroidManifest.xml:3:1-235:12
MERGED from [:tfod-release:] C:\Users\daniel\.gradle\caches\transforms-2\files-2.1\5fab9b383ed9a29bd9ec24ccffc48ca0\jetified-tfod-release\AndroidManifest.xml:2:1-11:12
MERGED from [:tensorflow-lite-0.0.0-nightly:] C:\Users\daniel\.gradle\caches\transforms-2\files-2.1\8de39f8baae639b9b1caa67458fd4c35\jetified-tensorflow-lite-0.0.0-nightly\AndroidManifest.xml:2:1-6:12
MERGED from [org.openftc:rev-extensions-2:1.2] C:\Users\daniel\.gradle\caches\transforms-2\files-2.1\7577e452397c00dd2fbea49ed1c9751f\jetified-rev-extensions-2-1.2\AndroidManifest.xml:2:1-12:12
MERGED from [org.firstinspires.ftc:Inspection:6.1.1] C:\Users\daniel\.gradle\caches\transforms-2\files-2.1\475cdf6e60918154a87a9336488dabc3\jetified-Inspection-6.1.1\AndroidManifest.xml:2:1-32:12
MERGED from [org.firstinspires.ftc:Blocks:6.1.1] C:\Users\daniel\.gradle\caches\transforms-2\files-2.1\b765f1f17f7b83be2b0cc4c0ffbfa067\jetified-Blocks-6.1.1\AndroidManifest.xml:2:1-26:12
MERGED from [org.firstinspires.ftc:RobotServer:6.1.1] C:\Users\daniel\.gradle\caches\transforms-2\files-2.1\36e64510e3d5557ca5a8e487a3fa93ac\jetified-RobotServer-6.1.1\AndroidManifest.xml:2:1-11:12
MERGED from [org.firstinspires.ftc:OnBotJava:6.1.1] C:\Users\daniel\.gradle\caches\transforms-2\files-2.1\388c5c81810c08c03b2775d9a900803a\jetified-OnBotJava-6.1.1\AndroidManifest.xml:34:1-43:12
MERGED from [androidx.appcompat:appcompat:1.2.0] C:\Users\daniel\.gradle\caches\transforms-2\files-2.1\bf96d2b5a86ecd602a621e7e96856420\appcompat-1.2.0\AndroidManifest.xml:17:1-24:12
MERGED from [androidx.fragment:fragment:1.1.0] C:\Users\daniel\.gradle\caches\transforms-2\files-2.1\12c076570219bdc2a11e9d0df335391a\fragment-1.1.0\AndroidManifest.xml:17:1-24:12
MERGED from [androidx.appcompat:appcompat-resources:1.2.0] C:\Users\daniel\.gradle\caches\transforms-2\files-2.1\ee9b51f71825564f346013ea1d4d0318\jetified-appcompat-resources-1.2.0\AndroidManifest.xml:17:1-24:12
MERGED from [androidx.drawerlayout:drawerlayout:1.0.0] C:\Users\daniel\.gradle\caches\transforms-2\files-2.1\4c1ade53cc4b20d7bc631ac17d3bfca4\drawerlayout-1.0.0\AndroidManifest.xml:17:1-22:12
MERGED from [androidx.viewpager:viewpager:1.0.0] C:\Users\daniel\.gradle\caches\transforms-2\files-2.1\ebc8011c39d26c440b76466a9b971345\viewpager-1.0.0\AndroidManifest.xml:17:1-22:12
MERGED from [androidx.loader:loader:1.0.0] C:\Users\daniel\.gradle\caches\transforms-2\files-2.1\2118a7099009bdd29f0289728ee82c0d\loader-1.0.0\AndroidManifest.xml:17:1-22:12
MERGED from [androidx.activity:activity:1.0.0] C:\Users\daniel\.gradle\caches\transforms-2\files-2.1\f52c60a67eb4c2183a64b296ae574169\jetified-activity-1.0.0\AndroidManifest.xml:17:1-24:12
MERGED from [androidx.vectordrawable:vectordrawable-animated:1.1.0] C:\Users\daniel\.gradle\caches\transforms-2\files-2.1\32488318cfc756fa0f6ae91e625fa530\vectordrawable-animated-1.1.0\AndroidManifest.xml:17:1-24:12
MERGED from [androidx.vectordrawable:vectordrawable:1.1.0] C:\Users\daniel\.gradle\caches\transforms-2\files-2.1\0878a65179abd6a1b5016c6981bce614\vectordrawable-1.1.0\AndroidManifest.xml:17:1-24:12
MERGED from [androidx.customview:customview:1.0.0] C:\Users\daniel\.gradle\caches\transforms-2\files-2.1\d1ea25f3382273eed14315b543469208\customview-1.0.0\AndroidManifest.xml:17:1-22:12
MERGED from [androidx.core:core:1.3.0] C:\Users\daniel\.gradle\caches\transforms-2\files-2.1\429fb715fcc7711d4ab133e350b6f531\core-1.3.0\AndroidManifest.xml:17:1-26:12
MERGED from [androidx.cursoradapter:cursoradapter:1.0.0] C:\Users\daniel\.gradle\caches\transforms-2\files-2.1\7c0677be8011741026309ef690a9f4db\cursoradapter-1.0.0\AndroidManifest.xml:17:1-22:12
MERGED from [androidx.versionedparcelable:versionedparcelable:1.1.0] C:\Users\daniel\.gradle\caches\transforms-2\files-2.1\67aa86ef8808cac41aa5afe6d271f3ea\versionedparcelable-1.1.0\AndroidManifest.xml:17:1-27:12
MERGED from [androidx.lifecycle:lifecycle-runtime:2.1.0] C:\Users\daniel\.gradle\caches\transforms-2\files-2.1\098c479f6892902db16f6d5e04f3818b\lifecycle-runtime-2.1.0\AndroidManifest.xml:17:1-22:12
MERGED from [androidx.lifecycle:lifecycle-viewmodel:2.1.0] C:\Users\daniel\.gradle\caches\transforms-2\files-2.1\8cf26fd0d5f767ad6dfe1019ab25b952\lifecycle-viewmodel-2.1.0\AndroidManifest.xml:17:1-22:12
MERGED from [androidx.savedstate:savedstate:1.0.0] C:\Users\daniel\.gradle\caches\transforms-2\files-2.1\86f8c8e32c7613bbe5e86eb4377e9413\jetified-savedstate-1.0.0\AndroidManifest.xml:17:1-24:12
MERGED from [androidx.interpolator:interpolator:1.0.0] C:\Users\daniel\.gradle\caches\transforms-2\files-2.1\bcf856ddfeb04b3b73ed182739910d39\interpolator-1.0.0\AndroidManifest.xml:17:1-22:12
MERGED from [androidx.lifecycle:lifecycle-livedata:2.0.0] C:\Users\daniel\.gradle\caches\transforms-2\files-2.1\c6f1e76c078a7e4f5288325854cab247\lifecycle-livedata-2.0.0\AndroidManifest.xml:17:1-22:12
MERGED from [androidx.lifecycle:lifecycle-livedata-core:2.0.0] C:\Users\daniel\.gradle\caches\transforms-2\files-2.1\7282e00d74c6a6acf53f4bfd68421266\lifecycle-livedata-core-2.0.0\AndroidManifest.xml:17:1-22:12
MERGED from [androidx.arch.core:core-runtime:2.0.0] C:\Users\daniel\.gradle\caches\transforms-2\files-2.1\73114719268a97e9fd391905563b2ee9\core-runtime-2.0.0\AndroidManifest.xml:17:1-22:12
INJECTED from C:\Users\daniel\Desktop\Robotics\roadrunner\road-runner-quickstart\TeamCode\src\main\AndroidManifest.xml:8:1-12:12
INJECTED from C:\Users\daniel\Desktop\Robotics\roadrunner\road-runner-quickstart\TeamCode\src\main\AndroidManifest.xml:8:1-12:12
INJECTED from C:\Users\daniel\Desktop\Robotics\roadrunner\road-runner-quickstart\TeamCode\src\main\AndroidManifest.xml:8:1-12:12
	package
		ADDED from C:\Users\daniel\Desktop\Robotics\roadrunner\road-runner-quickstart\TeamCode\src\main\AndroidManifest.xml:9:5-45
		INJECTED from C:\Users\daniel\Desktop\Robotics\roadrunner\road-runner-quickstart\TeamCode\src\main\AndroidManifest.xml
		INJECTED from C:\Users\daniel\Desktop\Robotics\roadrunner\road-runner-quickstart\TeamCode\src\main\AndroidManifest.xml
	android:versionName
		INJECTED from C:\Users\daniel\Desktop\Robotics\roadrunner\road-runner-quickstart\TeamCode\src\main\AndroidManifest.xml
		ADDED from C:\Users\daniel\Desktop\Robotics\roadrunner\road-runner-quickstart\TeamCode\src\main\AndroidManifest.xml:8:1-12:12
		INJECTED from C:\Users\daniel\Desktop\Robotics\roadrunner\road-runner-quickstart\TeamCode\src\main\AndroidManifest.xml
	android:versionCode
		INJECTED from C:\Users\daniel\Desktop\Robotics\roadrunner\road-runner-quickstart\TeamCode\src\main\AndroidManifest.xml
		ADDED from C:\Users\daniel\Desktop\Robotics\roadrunner\road-runner-quickstart\TeamCode\src\main\AndroidManifest.xml:8:1-12:12
		INJECTED from C:\Users\daniel\Desktop\Robotics\roadrunner\road-runner-quickstart\TeamCode\src\main\AndroidManifest.xml
	xmlns:android
		ADDED from C:\Users\daniel\Desktop\Robotics\roadrunner\road-runner-quickstart\TeamCode\src\main\AndroidManifest.xml:10:5-63
application
ADDED from C:\Users\daniel\Desktop\Robotics\roadrunner\road-runner-quickstart\TeamCode\src\main\AndroidManifest.xml:11:5-19
MERGED from [:FtcRobotController] C:\Users\daniel\Desktop\Robotics\roadrunner\road-runner-quickstart\FtcRobotController\build\intermediates\library_manifest\debug\AndroidManifest.xml:14:5-65:19
MERGED from [:FtcRobotController] C:\Users\daniel\Desktop\Robotics\roadrunner\road-runner-quickstart\FtcRobotController\build\intermediates\library_manifest\debug\AndroidManifest.xml:14:5-65:19
MERGED from [org.firstinspires.ftc:RobotCore:6.1.1] C:\Users\daniel\.gradle\caches\transforms-2\files-2.1\a1e640aef899fd475a91d3fc3efdadd1\jetified-RobotCore-6.1.1\AndroidManifest.xml:86:5-128:19
MERGED from [org.firstinspires.ftc:RobotCore:6.1.1] C:\Users\daniel\.gradle\caches\transforms-2\files-2.1\a1e640aef899fd475a91d3fc3efdadd1\jetified-RobotCore-6.1.1\AndroidManifest.xml:86:5-128:19
MERGED from [org.firstinspires.ftc:FtcCommon:6.1.1] C:\Users\daniel\.gradle\caches\transforms-2\files-2.1\8e1e0b436de64edfed69fee3d461afb8\jetified-FtcCommon-6.1.1\AndroidManifest.xml:23:5-233:19
MERGED from [org.firstinspires.ftc:FtcCommon:6.1.1] C:\Users\daniel\.gradle\caches\transforms-2\files-2.1\8e1e0b436de64edfed69fee3d461afb8\jetified-FtcCommon-6.1.1\AndroidManifest.xml:23:5-233:19
MERGED from [:tensorflow-lite-0.0.0-nightly:] C:\Users\daniel\.gradle\caches\transforms-2\files-2.1\8de39f8baae639b9b1caa67458fd4c35\jetified-tensorflow-lite-0.0.0-nightly\AndroidManifest.xml:4:5-5:19
MERGED from [:tensorflow-lite-0.0.0-nightly:] C:\Users\daniel\.gradle\caches\transforms-2\files-2.1\8de39f8baae639b9b1caa67458fd4c35\jetified-tensorflow-lite-0.0.0-nightly\AndroidManifest.xml:4:5-5:19
MERGED from [org.firstinspires.ftc:Inspection:6.1.1] C:\Users\daniel\.gradle\caches\transforms-2\files-2.1\475cdf6e60918154a87a9336488dabc3\jetified-Inspection-6.1.1\AndroidManifest.xml:19:5-30:19
MERGED from [org.firstinspires.ftc:Inspection:6.1.1] C:\Users\daniel\.gradle\caches\transforms-2\files-2.1\475cdf6e60918154a87a9336488dabc3\jetified-Inspection-6.1.1\AndroidManifest.xml:19:5-30:19
MERGED from [org.firstinspires.ftc:Blocks:6.1.1] C:\Users\daniel\.gradle\caches\transforms-2\files-2.1\b765f1f17f7b83be2b0cc4c0ffbfa067\jetified-Blocks-6.1.1\AndroidManifest.xml:18:5-24:19
MERGED from [org.firstinspires.ftc:Blocks:6.1.1] C:\Users\daniel\.gradle\caches\transforms-2\files-2.1\b765f1f17f7b83be2b0cc4c0ffbfa067\jetified-Blocks-6.1.1\AndroidManifest.xml:18:5-24:19
MERGED from [androidx.core:core:1.3.0] C:\Users\daniel\.gradle\caches\transforms-2\files-2.1\429fb715fcc7711d4ab133e350b6f531\core-1.3.0\AndroidManifest.xml:24:5-89
MERGED from [androidx.core:core:1.3.0] C:\Users\daniel\.gradle\caches\transforms-2\files-2.1\429fb715fcc7711d4ab133e350b6f531\core-1.3.0\AndroidManifest.xml:24:5-89
MERGED from [androidx.versionedparcelable:versionedparcelable:1.1.0] C:\Users\daniel\.gradle\caches\transforms-2\files-2.1\67aa86ef8808cac41aa5afe6d271f3ea\versionedparcelable-1.1.0\AndroidManifest.xml:24:5-25:19
MERGED from [androidx.versionedparcelable:versionedparcelable:1.1.0] C:\Users\daniel\.gradle\caches\transforms-2\files-2.1\67aa86ef8808cac41aa5afe6d271f3ea\versionedparcelable-1.1.0\AndroidManifest.xml:24:5-25:19
	android:extractNativeLibs
		ADDED from [:FtcRobotController] C:\Users\daniel\Desktop\Robotics\roadrunner\road-runner-quickstart\FtcRobotController\build\intermediates\library_manifest\debug\AndroidManifest.xml:16:9-41
	android:appComponentFactory
		ADDED from [androidx.core:core:1.3.0] C:\Users\daniel\.gradle\caches\transforms-2\files-2.1\429fb715fcc7711d4ab133e350b6f531\core-1.3.0\AndroidManifest.xml:24:18-86
	android:label
		ADDED from [:FtcRobotController] C:\Users\daniel\Desktop\Robotics\roadrunner\road-runner-quickstart\FtcRobotController\build\intermediates\library_manifest\debug\AndroidManifest.xml:18:9-41
	android:largeHeap
		ADDED from [:FtcRobotController] C:\Users\daniel\Desktop\Robotics\roadrunner\road-runner-quickstart\FtcRobotController\build\intermediates\library_manifest\debug\AndroidManifest.xml:19:9-33
	android:icon
		ADDED from [:FtcRobotController] C:\Users\daniel\Desktop\Robotics\roadrunner\road-runner-quickstart\FtcRobotController\build\intermediates\library_manifest\debug\AndroidManifest.xml:17:9-45
	android:allowBackup
		ADDED from [:FtcRobotController] C:\Users\daniel\Desktop\Robotics\roadrunner\road-runner-quickstart\FtcRobotController\build\intermediates\library_manifest\debug\AndroidManifest.xml:15:9-35
	android:theme
		ADDED from [:FtcRobotController] C:\Users\daniel\Desktop\Robotics\roadrunner\road-runner-quickstart\FtcRobotController\build\intermediates\library_manifest\debug\AndroidManifest.xml:20:9-45
	android:name
		ADDED from [org.firstinspires.ftc:RobotCore:6.1.1] C:\Users\daniel\.gradle\caches\transforms-2\files-2.1\a1e640aef899fd475a91d3fc3efdadd1\jetified-RobotCore-6.1.1\AndroidManifest.xml:86:18-97
	android:usesCleartextTraffic
		ADDED from [:FtcRobotController] C:\Users\daniel\Desktop\Robotics\roadrunner\road-runner-quickstart\FtcRobotController\build\intermediates\library_manifest\debug\AndroidManifest.xml:21:9-44
uses-sdk
INJECTED from C:\Users\daniel\Desktop\Robotics\roadrunner\road-runner-quickstart\TeamCode\src\main\AndroidManifest.xml reason: use-sdk injection requested
INJECTED from C:\Users\daniel\Desktop\Robotics\roadrunner\road-runner-quickstart\TeamCode\src\main\AndroidManifest.xml
INJECTED from C:\Users\daniel\Desktop\Robotics\roadrunner\road-runner-quickstart\TeamCode\src\main\AndroidManifest.xml
MERGED from [:FtcRobotController] C:\Users\daniel\Desktop\Robotics\roadrunner\road-runner-quickstart\FtcRobotController\build\intermediates\library_manifest\debug\AndroidManifest.xml:8:5-10:41
MERGED from [:FtcRobotController] C:\Users\daniel\Desktop\Robotics\roadrunner\road-runner-quickstart\FtcRobotController\build\intermediates\library_manifest\debug\AndroidManifest.xml:8:5-10:41
MERGED from [com.acmerobotics.dashboard:dashboard:0.4.0] C:\Users\daniel\.gradle\caches\transforms-2\files-2.1\c503889d782e8f92548721dc6d0e23e2\jetified-dashboard-0.4.0\AndroidManifest.xml:5:5-7:41
MERGED from [com.acmerobotics.dashboard:dashboard:0.4.0] C:\Users\daniel\.gradle\caches\transforms-2\files-2.1\c503889d782e8f92548721dc6d0e23e2\jetified-dashboard-0.4.0\AndroidManifest.xml:5:5-7:41
MERGED from [org.firstinspires.ftc:RobotCore:6.1.1] C:\Users\daniel\.gradle\caches\transforms-2\files-2.1\a1e640aef899fd475a91d3fc3efdadd1\jetified-RobotCore-6.1.1\AndroidManifest.xml:7:5-9:41
MERGED from [org.firstinspires.ftc:RobotCore:6.1.1] C:\Users\daniel\.gradle\caches\transforms-2\files-2.1\a1e640aef899fd475a91d3fc3efdadd1\jetified-RobotCore-6.1.1\AndroidManifest.xml:7:5-9:41
MERGED from [org.firstinspires.ftc:Hardware:6.1.1] C:\Users\daniel\.gradle\caches\transforms-2\files-2.1\86ceccc0a0031172a0ffc6b933ac3893\jetified-Hardware-6.1.1\AndroidManifest.xml:7:5-9:41
MERGED from [org.firstinspires.ftc:Hardware:6.1.1] C:\Users\daniel\.gradle\caches\transforms-2\files-2.1\86ceccc0a0031172a0ffc6b933ac3893\jetified-Hardware-6.1.1\AndroidManifest.xml:7:5-9:41
MERGED from [org.firstinspires.ftc:FtcCommon:6.1.1] C:\Users\daniel\.gradle\caches\transforms-2\files-2.1\8e1e0b436de64edfed69fee3d461afb8\jetified-FtcCommon-6.1.1\AndroidManifest.xml:8:5-10:41
MERGED from [org.firstinspires.ftc:FtcCommon:6.1.1] C:\Users\daniel\.gradle\caches\transforms-2\files-2.1\8e1e0b436de64edfed69fee3d461afb8\jetified-FtcCommon-6.1.1\AndroidManifest.xml:8:5-10:41
MERGED from [:tfod-release:] C:\Users\daniel\.gradle\caches\transforms-2\files-2.1\5fab9b383ed9a29bd9ec24ccffc48ca0\jetified-tfod-release\AndroidManifest.xml:7:5-9:41
MERGED from [:tfod-release:] C:\Users\daniel\.gradle\caches\transforms-2\files-2.1\5fab9b383ed9a29bd9ec24ccffc48ca0\jetified-tfod-release\AndroidManifest.xml:7:5-9:41
MERGED from [org.openftc:rev-extensions-2:1.2] C:\Users\daniel\.gradle\caches\transforms-2\files-2.1\7577e452397c00dd2fbea49ed1c9751f\jetified-rev-extensions-2-1.2\AndroidManifest.xml:8:5-10:41
MERGED from [org.openftc:rev-extensions-2:1.2] C:\Users\daniel\.gradle\caches\transforms-2\files-2.1\7577e452397c00dd2fbea49ed1c9751f\jetified-rev-extensions-2-1.2\AndroidManifest.xml:8:5-10:41
MERGED from [org.firstinspires.ftc:Inspection:6.1.1] C:\Users\daniel\.gradle\caches\transforms-2\files-2.1\475cdf6e60918154a87a9336488dabc3\jetified-Inspection-6.1.1\AndroidManifest.xml:7:5-9:41
MERGED from [org.firstinspires.ftc:Inspection:6.1.1] C:\Users\daniel\.gradle\caches\transforms-2\files-2.1\475cdf6e60918154a87a9336488dabc3\jetified-Inspection-6.1.1\AndroidManifest.xml:7:5-9:41
MERGED from [org.firstinspires.ftc:Blocks:6.1.1] C:\Users\daniel\.gradle\caches\transforms-2\files-2.1\b765f1f17f7b83be2b0cc4c0ffbfa067\jetified-Blocks-6.1.1\AndroidManifest.xml:7:5-9:41
MERGED from [org.firstinspires.ftc:Blocks:6.1.1] C:\Users\daniel\.gradle\caches\transforms-2\files-2.1\b765f1f17f7b83be2b0cc4c0ffbfa067\jetified-Blocks-6.1.1\AndroidManifest.xml:7:5-9:41
MERGED from [org.firstinspires.ftc:RobotServer:6.1.1] C:\Users\daniel\.gradle\caches\transforms-2\files-2.1\36e64510e3d5557ca5a8e487a3fa93ac\jetified-RobotServer-6.1.1\AndroidManifest.xml:7:5-9:41
MERGED from [org.firstinspires.ftc:RobotServer:6.1.1] C:\Users\daniel\.gradle\caches\transforms-2\files-2.1\36e64510e3d5557ca5a8e487a3fa93ac\jetified-RobotServer-6.1.1\AndroidManifest.xml:7:5-9:41
MERGED from [org.firstinspires.ftc:OnBotJava:6.1.1] C:\Users\daniel\.gradle\caches\transforms-2\files-2.1\388c5c81810c08c03b2775d9a900803a\jetified-OnBotJava-6.1.1\AndroidManifest.xml:39:5-41:41
MERGED from [org.firstinspires.ftc:OnBotJava:6.1.1] C:\Users\daniel\.gradle\caches\transforms-2\files-2.1\388c5c81810c08c03b2775d9a900803a\jetified-OnBotJava-6.1.1\AndroidManifest.xml:39:5-41:41
MERGED from [androidx.appcompat:appcompat:1.2.0] C:\Users\daniel\.gradle\caches\transforms-2\files-2.1\bf96d2b5a86ecd602a621e7e96856420\appcompat-1.2.0\AndroidManifest.xml:20:5-22:41
MERGED from [androidx.appcompat:appcompat:1.2.0] C:\Users\daniel\.gradle\caches\transforms-2\files-2.1\bf96d2b5a86ecd602a621e7e96856420\appcompat-1.2.0\AndroidManifest.xml:20:5-22:41
MERGED from [androidx.fragment:fragment:1.1.0] C:\Users\daniel\.gradle\caches\transforms-2\files-2.1\12c076570219bdc2a11e9d0df335391a\fragment-1.1.0\AndroidManifest.xml:20:5-22:41
MERGED from [androidx.fragment:fragment:1.1.0] C:\Users\daniel\.gradle\caches\transforms-2\files-2.1\12c076570219bdc2a11e9d0df335391a\fragment-1.1.0\AndroidManifest.xml:20:5-22:41
MERGED from [androidx.appcompat:appcompat-resources:1.2.0] C:\Users\daniel\.gradle\caches\transforms-2\files-2.1\ee9b51f71825564f346013ea1d4d0318\jetified-appcompat-resources-1.2.0\AndroidManifest.xml:20:5-22:41
MERGED from [androidx.appcompat:appcompat-resources:1.2.0] C:\Users\daniel\.gradle\caches\transforms-2\files-2.1\ee9b51f71825564f346013ea1d4d0318\jetified-appcompat-resources-1.2.0\AndroidManifest.xml:20:5-22:41
MERGED from [androidx.drawerlayout:drawerlayout:1.0.0] C:\Users\daniel\.gradle\caches\transforms-2\files-2.1\4c1ade53cc4b20d7bc631ac17d3bfca4\drawerlayout-1.0.0\AndroidManifest.xml:20:5-44
MERGED from [androidx.drawerlayout:drawerlayout:1.0.0] C:\Users\daniel\.gradle\caches\transforms-2\files-2.1\4c1ade53cc4b20d7bc631ac17d3bfca4\drawerlayout-1.0.0\AndroidManifest.xml:20:5-44
MERGED from [androidx.viewpager:viewpager:1.0.0] C:\Users\daniel\.gradle\caches\transforms-2\files-2.1\ebc8011c39d26c440b76466a9b971345\viewpager-1.0.0\AndroidManifest.xml:20:5-44
MERGED from [androidx.viewpager:viewpager:1.0.0] C:\Users\daniel\.gradle\caches\transforms-2\files-2.1\ebc8011c39d26c440b76466a9b971345\viewpager-1.0.0\AndroidManifest.xml:20:5-44
MERGED from [androidx.loader:loader:1.0.0] C:\Users\daniel\.gradle\caches\transforms-2\files-2.1\2118a7099009bdd29f0289728ee82c0d\loader-1.0.0\AndroidManifest.xml:20:5-44
MERGED from [androidx.loader:loader:1.0.0] C:\Users\daniel\.gradle\caches\transforms-2\files-2.1\2118a7099009bdd29f0289728ee82c0d\loader-1.0.0\AndroidManifest.xml:20:5-44
MERGED from [androidx.activity:activity:1.0.0] C:\Users\daniel\.gradle\caches\transforms-2\files-2.1\f52c60a67eb4c2183a64b296ae574169\jetified-activity-1.0.0\AndroidManifest.xml:20:5-22:41
MERGED from [androidx.activity:activity:1.0.0] C:\Users\daniel\.gradle\caches\transforms-2\files-2.1\f52c60a67eb4c2183a64b296ae574169\jetified-activity-1.0.0\AndroidManifest.xml:20:5-22:41
MERGED from [androidx.vectordrawable:vectordrawable-animated:1.1.0] C:\Users\daniel\.gradle\caches\transforms-2\files-2.1\32488318cfc756fa0f6ae91e625fa530\vectordrawable-animated-1.1.0\AndroidManifest.xml:20:5-22:41
MERGED from [androidx.vectordrawable:vectordrawable-animated:1.1.0] C:\Users\daniel\.gradle\caches\transforms-2\files-2.1\32488318cfc756fa0f6ae91e625fa530\vectordrawable-animated-1.1.0\AndroidManifest.xml:20:5-22:41
MERGED from [androidx.vectordrawable:vectordrawable:1.1.0] C:\Users\daniel\.gradle\caches\transforms-2\files-2.1\0878a65179abd6a1b5016c6981bce614\vectordrawable-1.1.0\AndroidManifest.xml:20:5-22:41
MERGED from [androidx.vectordrawable:vectordrawable:1.1.0] C:\Users\daniel\.gradle\caches\transforms-2\files-2.1\0878a65179abd6a1b5016c6981bce614\vectordrawable-1.1.0\AndroidManifest.xml:20:5-22:41
MERGED from [androidx.customview:customview:1.0.0] C:\Users\daniel\.gradle\caches\transforms-2\files-2.1\d1ea25f3382273eed14315b543469208\customview-1.0.0\AndroidManifest.xml:20:5-44
MERGED from [androidx.customview:customview:1.0.0] C:\Users\daniel\.gradle\caches\transforms-2\files-2.1\d1ea25f3382273eed14315b543469208\customview-1.0.0\AndroidManifest.xml:20:5-44
MERGED from [androidx.core:core:1.3.0] C:\Users\daniel\.gradle\caches\transforms-2\files-2.1\429fb715fcc7711d4ab133e350b6f531\core-1.3.0\AndroidManifest.xml:20:5-22:41
MERGED from [androidx.core:core:1.3.0] C:\Users\daniel\.gradle\caches\transforms-2\files-2.1\429fb715fcc7711d4ab133e350b6f531\core-1.3.0\AndroidManifest.xml:20:5-22:41
MERGED from [androidx.cursoradapter:cursoradapter:1.0.0] C:\Users\daniel\.gradle\caches\transforms-2\files-2.1\7c0677be8011741026309ef690a9f4db\cursoradapter-1.0.0\AndroidManifest.xml:20:5-44
MERGED from [androidx.cursoradapter:cursoradapter:1.0.0] C:\Users\daniel\.gradle\caches\transforms-2\files-2.1\7c0677be8011741026309ef690a9f4db\cursoradapter-1.0.0\AndroidManifest.xml:20:5-44
MERGED from [androidx.versionedparcelable:versionedparcelable:1.1.0] C:\Users\daniel\.gradle\caches\transforms-2\files-2.1\67aa86ef8808cac41aa5afe6d271f3ea\versionedparcelable-1.1.0\AndroidManifest.xml:20:5-22:41
MERGED from [androidx.versionedparcelable:versionedparcelable:1.1.0] C:\Users\daniel\.gradle\caches\transforms-2\files-2.1\67aa86ef8808cac41aa5afe6d271f3ea\versionedparcelable-1.1.0\AndroidManifest.xml:20:5-22:41
MERGED from [androidx.lifecycle:lifecycle-runtime:2.1.0] C:\Users\daniel\.gradle\caches\transforms-2\files-2.1\098c479f6892902db16f6d5e04f3818b\lifecycle-runtime-2.1.0\AndroidManifest.xml:20:5-44
MERGED from [androidx.lifecycle:lifecycle-runtime:2.1.0] C:\Users\daniel\.gradle\caches\transforms-2\files-2.1\098c479f6892902db16f6d5e04f3818b\lifecycle-runtime-2.1.0\AndroidManifest.xml:20:5-44
MERGED from [androidx.lifecycle:lifecycle-viewmodel:2.1.0] C:\Users\daniel\.gradle\caches\transforms-2\files-2.1\8cf26fd0d5f767ad6dfe1019ab25b952\lifecycle-viewmodel-2.1.0\AndroidManifest.xml:20:5-44
MERGED from [androidx.lifecycle:lifecycle-viewmodel:2.1.0] C:\Users\daniel\.gradle\caches\transforms-2\files-2.1\8cf26fd0d5f767ad6dfe1019ab25b952\lifecycle-viewmodel-2.1.0\AndroidManifest.xml:20:5-44
MERGED from [androidx.savedstate:savedstate:1.0.0] C:\Users\daniel\.gradle\caches\transforms-2\files-2.1\86f8c8e32c7613bbe5e86eb4377e9413\jetified-savedstate-1.0.0\AndroidManifest.xml:20:5-22:41
MERGED from [androidx.savedstate:savedstate:1.0.0] C:\Users\daniel\.gradle\caches\transforms-2\files-2.1\86f8c8e32c7613bbe5e86eb4377e9413\jetified-savedstate-1.0.0\AndroidManifest.xml:20:5-22:41
MERGED from [androidx.interpolator:interpolator:1.0.0] C:\Users\daniel\.gradle\caches\transforms-2\files-2.1\bcf856ddfeb04b3b73ed182739910d39\interpolator-1.0.0\AndroidManifest.xml:20:5-44
MERGED from [androidx.interpolator:interpolator:1.0.0] C:\Users\daniel\.gradle\caches\transforms-2\files-2.1\bcf856ddfeb04b3b73ed182739910d39\interpolator-1.0.0\AndroidManifest.xml:20:5-44
MERGED from [androidx.lifecycle:lifecycle-livedata:2.0.0] C:\Users\daniel\.gradle\caches\transforms-2\files-2.1\c6f1e76c078a7e4f5288325854cab247\lifecycle-livedata-2.0.0\AndroidManifest.xml:20:5-44
MERGED from [androidx.lifecycle:lifecycle-livedata:2.0.0] C:\Users\daniel\.gradle\caches\transforms-2\files-2.1\c6f1e76c078a7e4f5288325854cab247\lifecycle-livedata-2.0.0\AndroidManifest.xml:20:5-44
MERGED from [androidx.lifecycle:lifecycle-livedata-core:2.0.0] C:\Users\daniel\.gradle\caches\transforms-2\files-2.1\7282e00d74c6a6acf53f4bfd68421266\lifecycle-livedata-core-2.0.0\AndroidManifest.xml:20:5-44
MERGED from [androidx.lifecycle:lifecycle-livedata-core:2.0.0] C:\Users\daniel\.gradle\caches\transforms-2\files-2.1\7282e00d74c6a6acf53f4bfd68421266\lifecycle-livedata-core-2.0.0\AndroidManifest.xml:20:5-44
MERGED from [androidx.arch.core:core-runtime:2.0.0] C:\Users\daniel\.gradle\caches\transforms-2\files-2.1\73114719268a97e9fd391905563b2ee9\core-runtime-2.0.0\AndroidManifest.xml:20:5-44
MERGED from [androidx.arch.core:core-runtime:2.0.0] C:\Users\daniel\.gradle\caches\transforms-2\files-2.1\73114719268a97e9fd391905563b2ee9\core-runtime-2.0.0\AndroidManifest.xml:20:5-44
INJECTED from C:\Users\daniel\Desktop\Robotics\roadrunner\road-runner-quickstart\TeamCode\src\main\AndroidManifest.xml
INJECTED from C:\Users\daniel\Desktop\Robotics\roadrunner\road-runner-quickstart\TeamCode\src\main\AndroidManifest.xml
	android:targetSdkVersion
		INJECTED from C:\Users\daniel\Desktop\Robotics\roadrunner\road-runner-quickstart\TeamCode\src\main\AndroidManifest.xml
		ADDED from C:\Users\daniel\Desktop\Robotics\roadrunner\road-runner-quickstart\TeamCode\src\main\AndroidManifest.xml
		INJECTED from C:\Users\daniel\Desktop\Robotics\roadrunner\road-runner-quickstart\TeamCode\src\main\AndroidManifest.xml
	android:minSdkVersion
		INJECTED from C:\Users\daniel\Desktop\Robotics\roadrunner\road-runner-quickstart\TeamCode\src\main\AndroidManifest.xml
		ADDED from C:\Users\daniel\Desktop\Robotics\roadrunner\road-runner-quickstart\TeamCode\src\main\AndroidManifest.xml
		INJECTED from C:\Users\daniel\Desktop\Robotics\roadrunner\road-runner-quickstart\TeamCode\src\main\AndroidManifest.xml
uses-permission#android.permission.RECEIVE_BOOT_COMPLETED
ADDED from [:FtcRobotController] C:\Users\daniel\Desktop\Robotics\roadrunner\road-runner-quickstart\FtcRobotController\build\intermediates\library_manifest\debug\AndroidManifest.xml:12:5-81
	android:name
		ADDED from [:FtcRobotController] C:\Users\daniel\Desktop\Robotics\roadrunner\road-runner-quickstart\FtcRobotController\build\intermediates\library_manifest\debug\AndroidManifest.xml:12:22-78
meta-data#org.firstinspires.latestSupportedControlHubVersion
ADDED from [:FtcRobotController] C:\Users\daniel\Desktop\Robotics\roadrunner\road-runner-quickstart\FtcRobotController\build\intermediates\library_manifest\debug\AndroidManifest.xml:24:9-26:33
	android:value
		ADDED from [:FtcRobotController] C:\Users\daniel\Desktop\Robotics\roadrunner\road-runner-quickstart\FtcRobotController\build\intermediates\library_manifest\debug\AndroidManifest.xml:26:13-30
	android:name
		ADDED from [:FtcRobotController] C:\Users\daniel\Desktop\Robotics\roadrunner\road-runner-quickstart\FtcRobotController\build\intermediates\library_manifest\debug\AndroidManifest.xml:25:13-78
activity#org.firstinspires.ftc.robotcontroller.internal.PermissionValidatorWrapper
ADDED from [:FtcRobotController] C:\Users\daniel\Desktop\Robotics\roadrunner\road-runner-quickstart\FtcRobotController\build\intermediates\library_manifest\debug\AndroidManifest.xml:29:9-40:20
	android:screenOrientation
		ADDED from [:FtcRobotController] C:\Users\daniel\Desktop\Robotics\roadrunner\road-runner-quickstart\FtcRobotController\build\intermediates\library_manifest\debug\AndroidManifest.xml:34:13-49
	android:label
		ADDED from [:FtcRobotController] C:\Users\daniel\Desktop\Robotics\roadrunner\road-runner-quickstart\FtcRobotController\build\intermediates\library_manifest\debug\AndroidManifest.xml:32:13-45
	android:launchMode
		ADDED from [:FtcRobotController] C:\Users\daniel\Desktop\Robotics\roadrunner\road-runner-quickstart\FtcRobotController\build\intermediates\library_manifest\debug\AndroidManifest.xml:33:13-44
	android:configChanges
		ADDED from [:FtcRobotController] C:\Users\daniel\Desktop\Robotics\roadrunner\road-runner-quickstart\FtcRobotController\build\intermediates\library_manifest\debug\AndroidManifest.xml:31:13-59
	android:name
		ADDED from [:FtcRobotController] C:\Users\daniel\Desktop\Robotics\roadrunner\road-runner-quickstart\FtcRobotController\build\intermediates\library_manifest\debug\AndroidManifest.xml:30:13-101
intent-filter#action:name:android.intent.action.MAIN+category:name:android.intent.category.LAUNCHER
ADDED from [:FtcRobotController] C:\Users\daniel\Desktop\Robotics\roadrunner\road-runner-quickstart\FtcRobotController\build\intermediates\library_manifest\debug\AndroidManifest.xml:35:13-39:29
category#android.intent.category.LAUNCHER
ADDED from [:FtcRobotController] C:\Users\daniel\Desktop\Robotics\roadrunner\road-runner-quickstart\FtcRobotController\build\intermediates\library_manifest\debug\AndroidManifest.xml:36:17-77
	android:name
		ADDED from [:FtcRobotController] C:\Users\daniel\Desktop\Robotics\roadrunner\road-runner-quickstart\FtcRobotController\build\intermediates\library_manifest\debug\AndroidManifest.xml:36:27-74
action#android.intent.action.MAIN
ADDED from [:FtcRobotController] C:\Users\daniel\Desktop\Robotics\roadrunner\road-runner-quickstart\FtcRobotController\build\intermediates\library_manifest\debug\AndroidManifest.xml:38:17-69
	android:name
		ADDED from [:FtcRobotController] C:\Users\daniel\Desktop\Robotics\roadrunner\road-runner-quickstart\FtcRobotController\build\intermediates\library_manifest\debug\AndroidManifest.xml:38:25-66
activity#org.firstinspires.ftc.robotcontroller.internal.FtcRobotControllerActivity
ADDED from [:FtcRobotController] C:\Users\daniel\Desktop\Robotics\roadrunner\road-runner-quickstart\FtcRobotController\build\intermediates\library_manifest\debug\AndroidManifest.xml:41:9-59:20
	android:screenOrientation
		ADDED from [:FtcRobotController] C:\Users\daniel\Desktop\Robotics\roadrunner\road-runner-quickstart\FtcRobotController\build\intermediates\library_manifest\debug\AndroidManifest.xml:46:13-49
	android:label
		ADDED from [:FtcRobotController] C:\Users\daniel\Desktop\Robotics\roadrunner\road-runner-quickstart\FtcRobotController\build\intermediates\library_manifest\debug\AndroidManifest.xml:44:13-45
	android:launchMode
		ADDED from [:FtcRobotController] C:\Users\daniel\Desktop\Robotics\roadrunner\road-runner-quickstart\FtcRobotController\build\intermediates\library_manifest\debug\AndroidManifest.xml:45:13-44
	android:configChanges
		ADDED from [:FtcRobotController] C:\Users\daniel\Desktop\Robotics\roadrunner\road-runner-quickstart\FtcRobotController\build\intermediates\library_manifest\debug\AndroidManifest.xml:43:13-59
	android:name
		ADDED from [:FtcRobotController] C:\Users\daniel\Desktop\Robotics\roadrunner\road-runner-quickstart\FtcRobotController\build\intermediates\library_manifest\debug\AndroidManifest.xml:42:13-101
intent-filter#action:name:android.hardware.usb.action.USB_DEVICE_ATTACHED
ADDED from [:FtcRobotController] C:\Users\daniel\Desktop\Robotics\roadrunner\road-runner-quickstart\FtcRobotController\build\intermediates\library_manifest\debug\AndroidManifest.xml:47:13-49:29
action#android.hardware.usb.action.USB_DEVICE_ATTACHED
ADDED from [:FtcRobotController] C:\Users\daniel\Desktop\Robotics\roadrunner\road-runner-quickstart\FtcRobotController\build\intermediates\library_manifest\debug\AndroidManifest.xml:48:17-90
	android:name
		ADDED from [:FtcRobotController] C:\Users\daniel\Desktop\Robotics\roadrunner\road-runner-quickstart\FtcRobotController\build\intermediates\library_manifest\debug\AndroidManifest.xml:48:25-87
meta-data#android.hardware.usb.action.USB_DEVICE_ATTACHED
ADDED from [:FtcRobotController] C:\Users\daniel\Desktop\Robotics\roadrunner\road-runner-quickstart\FtcRobotController\build\intermediates\library_manifest\debug\AndroidManifest.xml:51:13-53:57
	android:resource
		ADDED from [:FtcRobotController] C:\Users\daniel\Desktop\Robotics\roadrunner\road-runner-quickstart\FtcRobotController\build\intermediates\library_manifest\debug\AndroidManifest.xml:53:17-54
	android:name
		ADDED from [:FtcRobotController] C:\Users\daniel\Desktop\Robotics\roadrunner\road-runner-quickstart\FtcRobotController\build\intermediates\library_manifest\debug\AndroidManifest.xml:52:17-79
meta-data#org.firstinspires.main.entry
ADDED from [:FtcRobotController] C:\Users\daniel\Desktop\Robotics\roadrunner\road-runner-quickstart\FtcRobotController\build\intermediates\library_manifest\debug\AndroidManifest.xml:56:13-58:40
	android:value
		ADDED from [:FtcRobotController] C:\Users\daniel\Desktop\Robotics\roadrunner\road-runner-quickstart\FtcRobotController\build\intermediates\library_manifest\debug\AndroidManifest.xml:58:17-37
	android:name
		ADDED from [:FtcRobotController] C:\Users\daniel\Desktop\Robotics\roadrunner\road-runner-quickstart\FtcRobotController\build\intermediates\library_manifest\debug\AndroidManifest.xml:57:17-60
service#com.qualcomm.ftccommon.FtcRobotControllerService
ADDED from [:FtcRobotController] C:\Users\daniel\Desktop\Robotics\roadrunner\road-runner-quickstart\FtcRobotController\build\intermediates\library_manifest\debug\AndroidManifest.xml:62:9-64:38
	android:enabled
		ADDED from [:FtcRobotController] C:\Users\daniel\Desktop\Robotics\roadrunner\road-runner-quickstart\FtcRobotController\build\intermediates\library_manifest\debug\AndroidManifest.xml:64:13-35
	android:name
		ADDED from [:FtcRobotController] C:\Users\daniel\Desktop\Robotics\roadrunner\road-runner-quickstart\FtcRobotController\build\intermediates\library_manifest\debug\AndroidManifest.xml:63:13-76
uses-permission#android.permission.ACCESS_WIFI_STATE
ADDED from [org.firstinspires.ftc:RobotCore:6.1.1] C:\Users\daniel\.gradle\caches\transforms-2\files-2.1\a1e640aef899fd475a91d3fc3efdadd1\jetified-RobotCore-6.1.1\AndroidManifest.xml:11:5-13:35
MERGED from [org.firstinspires.ftc:FtcCommon:6.1.1] C:\Users\daniel\.gradle\caches\transforms-2\files-2.1\8e1e0b436de64edfed69fee3d461afb8\jetified-FtcCommon-6.1.1\AndroidManifest.xml:12:5-76
MERGED from [org.firstinspires.ftc:FtcCommon:6.1.1] C:\Users\daniel\.gradle\caches\transforms-2\files-2.1\8e1e0b436de64edfed69fee3d461afb8\jetified-FtcCommon-6.1.1\AndroidManifest.xml:12:5-76
MERGED from [org.firstinspires.ftc:Inspection:6.1.1] C:\Users\daniel\.gradle\caches\transforms-2\files-2.1\475cdf6e60918154a87a9336488dabc3\jetified-Inspection-6.1.1\AndroidManifest.xml:11:5-76
MERGED from [org.firstinspires.ftc:Inspection:6.1.1] C:\Users\daniel\.gradle\caches\transforms-2\files-2.1\475cdf6e60918154a87a9336488dabc3\jetified-Inspection-6.1.1\AndroidManifest.xml:11:5-76
	android:required
		ADDED from [org.firstinspires.ftc:RobotCore:6.1.1] C:\Users\daniel\.gradle\caches\transforms-2\files-2.1\a1e640aef899fd475a91d3fc3efdadd1\jetified-RobotCore-6.1.1\AndroidManifest.xml:13:9-32
	android:name
		ADDED from [org.firstinspires.ftc:RobotCore:6.1.1] C:\Users\daniel\.gradle\caches\transforms-2\files-2.1\a1e640aef899fd475a91d3fc3efdadd1\jetified-RobotCore-6.1.1\AndroidManifest.xml:12:9-60
uses-permission#android.permission.CHANGE_WIFI_STATE
ADDED from [org.firstinspires.ftc:RobotCore:6.1.1] C:\Users\daniel\.gradle\caches\transforms-2\files-2.1\a1e640aef899fd475a91d3fc3efdadd1\jetified-RobotCore-6.1.1\AndroidManifest.xml:14:5-16:35
MERGED from [org.firstinspires.ftc:Inspection:6.1.1] C:\Users\daniel\.gradle\caches\transforms-2\files-2.1\475cdf6e60918154a87a9336488dabc3\jetified-Inspection-6.1.1\AndroidManifest.xml:13:5-76
MERGED from [org.firstinspires.ftc:Inspection:6.1.1] C:\Users\daniel\.gradle\caches\transforms-2\files-2.1\475cdf6e60918154a87a9336488dabc3\jetified-Inspection-6.1.1\AndroidManifest.xml:13:5-76
	android:required
		ADDED from [org.firstinspires.ftc:RobotCore:6.1.1] C:\Users\daniel\.gradle\caches\transforms-2\files-2.1\a1e640aef899fd475a91d3fc3efdadd1\jetified-RobotCore-6.1.1\AndroidManifest.xml:16:9-32
	android:name
		ADDED from [org.firstinspires.ftc:RobotCore:6.1.1] C:\Users\daniel\.gradle\caches\transforms-2\files-2.1\a1e640aef899fd475a91d3fc3efdadd1\jetified-RobotCore-6.1.1\AndroidManifest.xml:15:9-60
uses-permission#android.permission.BLUETOOTH
ADDED from [org.firstinspires.ftc:RobotCore:6.1.1] C:\Users\daniel\.gradle\caches\transforms-2\files-2.1\a1e640aef899fd475a91d3fc3efdadd1\jetified-RobotCore-6.1.1\AndroidManifest.xml:17:5-68
MERGED from [org.firstinspires.ftc:Inspection:6.1.1] C:\Users\daniel\.gradle\caches\transforms-2\files-2.1\475cdf6e60918154a87a9336488dabc3\jetified-Inspection-6.1.1\AndroidManifest.xml:17:5-68
MERGED from [org.firstinspires.ftc:Inspection:6.1.1] C:\Users\daniel\.gradle\caches\transforms-2\files-2.1\475cdf6e60918154a87a9336488dabc3\jetified-Inspection-6.1.1\AndroidManifest.xml:17:5-68
	android:name
		ADDED from [org.firstinspires.ftc:RobotCore:6.1.1] C:\Users\daniel\.gradle\caches\transforms-2\files-2.1\a1e640aef899fd475a91d3fc3efdadd1\jetified-RobotCore-6.1.1\AndroidManifest.xml:17:22-65
uses-permission#android.permission.ACCESS_NETWORK_STATE
ADDED from [org.firstinspires.ftc:RobotCore:6.1.1] C:\Users\daniel\.gradle\caches\transforms-2\files-2.1\a1e640aef899fd475a91d3fc3efdadd1\jetified-RobotCore-6.1.1\AndroidManifest.xml:18:5-20:35
MERGED from [org.firstinspires.ftc:Inspection:6.1.1] C:\Users\daniel\.gradle\caches\transforms-2\files-2.1\475cdf6e60918154a87a9336488dabc3\jetified-Inspection-6.1.1\AndroidManifest.xml:16:5-79
MERGED from [org.firstinspires.ftc:Inspection:6.1.1] C:\Users\daniel\.gradle\caches\transforms-2\files-2.1\475cdf6e60918154a87a9336488dabc3\jetified-Inspection-6.1.1\AndroidManifest.xml:16:5-79
	android:required
		ADDED from [org.firstinspires.ftc:RobotCore:6.1.1] C:\Users\daniel\.gradle\caches\transforms-2\files-2.1\a1e640aef899fd475a91d3fc3efdadd1\jetified-RobotCore-6.1.1\AndroidManifest.xml:20:9-32
	android:name
		ADDED from [org.firstinspires.ftc:RobotCore:6.1.1] C:\Users\daniel\.gradle\caches\transforms-2\files-2.1\a1e640aef899fd475a91d3fc3efdadd1\jetified-RobotCore-6.1.1\AndroidManifest.xml:19:9-63
uses-permission#android.permission.CHANGE_NETWORK_STATE
ADDED from [org.firstinspires.ftc:RobotCore:6.1.1] C:\Users\daniel\.gradle\caches\transforms-2\files-2.1\a1e640aef899fd475a91d3fc3efdadd1\jetified-RobotCore-6.1.1\AndroidManifest.xml:21:5-23:35
MERGED from [org.firstinspires.ftc:Inspection:6.1.1] C:\Users\daniel\.gradle\caches\transforms-2\files-2.1\475cdf6e60918154a87a9336488dabc3\jetified-Inspection-6.1.1\AndroidManifest.xml:14:5-79
MERGED from [org.firstinspires.ftc:Inspection:6.1.1] C:\Users\daniel\.gradle\caches\transforms-2\files-2.1\475cdf6e60918154a87a9336488dabc3\jetified-Inspection-6.1.1\AndroidManifest.xml:14:5-79
	android:required
		ADDED from [org.firstinspires.ftc:RobotCore:6.1.1] C:\Users\daniel\.gradle\caches\transforms-2\files-2.1\a1e640aef899fd475a91d3fc3efdadd1\jetified-RobotCore-6.1.1\AndroidManifest.xml:23:9-32
	android:name
		ADDED from [org.firstinspires.ftc:RobotCore:6.1.1] C:\Users\daniel\.gradle\caches\transforms-2\files-2.1\a1e640aef899fd475a91d3fc3efdadd1\jetified-RobotCore-6.1.1\AndroidManifest.xml:22:9-63
uses-permission#android.permission.INTERNET
ADDED from [org.firstinspires.ftc:RobotCore:6.1.1] C:\Users\daniel\.gradle\caches\transforms-2\files-2.1\a1e640aef899fd475a91d3fc3efdadd1\jetified-RobotCore-6.1.1\AndroidManifest.xml:24:5-26:35
MERGED from [org.firstinspires.ftc:Inspection:6.1.1] C:\Users\daniel\.gradle\caches\transforms-2\files-2.1\475cdf6e60918154a87a9336488dabc3\jetified-Inspection-6.1.1\AndroidManifest.xml:15:5-67
MERGED from [org.firstinspires.ftc:Inspection:6.1.1] C:\Users\daniel\.gradle\caches\transforms-2\files-2.1\475cdf6e60918154a87a9336488dabc3\jetified-Inspection-6.1.1\AndroidManifest.xml:15:5-67
	android:required
		ADDED from [org.firstinspires.ftc:RobotCore:6.1.1] C:\Users\daniel\.gradle\caches\transforms-2\files-2.1\a1e640aef899fd475a91d3fc3efdadd1\jetified-RobotCore-6.1.1\AndroidManifest.xml:26:9-32
	android:name
		ADDED from [org.firstinspires.ftc:RobotCore:6.1.1] C:\Users\daniel\.gradle\caches\transforms-2\files-2.1\a1e640aef899fd475a91d3fc3efdadd1\jetified-RobotCore-6.1.1\AndroidManifest.xml:25:9-51
uses-permission#android.permission.WRITE_EXTERNAL_STORAGE
ADDED from [org.firstinspires.ftc:RobotCore:6.1.1] C:\Users\daniel\.gradle\caches\transforms-2\files-2.1\a1e640aef899fd475a91d3fc3efdadd1\jetified-RobotCore-6.1.1\AndroidManifest.xml:29:5-31:35
MERGED from [org.firstinspires.ftc:FtcCommon:6.1.1] C:\Users\daniel\.gradle\caches\transforms-2\files-2.1\8e1e0b436de64edfed69fee3d461afb8\jetified-FtcCommon-6.1.1\AndroidManifest.xml:13:5-15:35
MERGED from [org.firstinspires.ftc:FtcCommon:6.1.1] C:\Users\daniel\.gradle\caches\transforms-2\files-2.1\8e1e0b436de64edfed69fee3d461afb8\jetified-FtcCommon-6.1.1\AndroidManifest.xml:13:5-15:35
MERGED from [org.firstinspires.ftc:Blocks:6.1.1] C:\Users\daniel\.gradle\caches\transforms-2\files-2.1\b765f1f17f7b83be2b0cc4c0ffbfa067\jetified-Blocks-6.1.1\AndroidManifest.xml:11:5-13:35
MERGED from [org.firstinspires.ftc:Blocks:6.1.1] C:\Users\daniel\.gradle\caches\transforms-2\files-2.1\b765f1f17f7b83be2b0cc4c0ffbfa067\jetified-Blocks-6.1.1\AndroidManifest.xml:11:5-13:35
	android:required
		ADDED from [org.firstinspires.ftc:RobotCore:6.1.1] C:\Users\daniel\.gradle\caches\transforms-2\files-2.1\a1e640aef899fd475a91d3fc3efdadd1\jetified-RobotCore-6.1.1\AndroidManifest.xml:31:9-32
	android:name
		ADDED from [org.firstinspires.ftc:RobotCore:6.1.1] C:\Users\daniel\.gradle\caches\transforms-2\files-2.1\a1e640aef899fd475a91d3fc3efdadd1\jetified-RobotCore-6.1.1\AndroidManifest.xml:30:9-65
uses-permission#android.permission.READ_EXTERNAL_STORAGE
ADDED from [org.firstinspires.ftc:RobotCore:6.1.1] C:\Users\daniel\.gradle\caches\transforms-2\files-2.1\a1e640aef899fd475a91d3fc3efdadd1\jetified-RobotCore-6.1.1\AndroidManifest.xml:33:5-35:35
MERGED from [org.firstinspires.ftc:FtcCommon:6.1.1] C:\Users\daniel\.gradle\caches\transforms-2\files-2.1\8e1e0b436de64edfed69fee3d461afb8\jetified-FtcCommon-6.1.1\AndroidManifest.xml:16:5-18:35
MERGED from [org.firstinspires.ftc:FtcCommon:6.1.1] C:\Users\daniel\.gradle\caches\transforms-2\files-2.1\8e1e0b436de64edfed69fee3d461afb8\jetified-FtcCommon-6.1.1\AndroidManifest.xml:16:5-18:35
MERGED from [org.firstinspires.ftc:Blocks:6.1.1] C:\Users\daniel\.gradle\caches\transforms-2\files-2.1\b765f1f17f7b83be2b0cc4c0ffbfa067\jetified-Blocks-6.1.1\AndroidManifest.xml:14:5-16:35
MERGED from [org.firstinspires.ftc:Blocks:6.1.1] C:\Users\daniel\.gradle\caches\transforms-2\files-2.1\b765f1f17f7b83be2b0cc4c0ffbfa067\jetified-Blocks-6.1.1\AndroidManifest.xml:14:5-16:35
	android:required
		ADDED from [org.firstinspires.ftc:RobotCore:6.1.1] C:\Users\daniel\.gradle\caches\transforms-2\files-2.1\a1e640aef899fd475a91d3fc3efdadd1\jetified-RobotCore-6.1.1\AndroidManifest.xml:35:9-32
	android:name
		ADDED from [org.firstinspires.ftc:RobotCore:6.1.1] C:\Users\daniel\.gradle\caches\transforms-2\files-2.1\a1e640aef899fd475a91d3fc3efdadd1\jetified-RobotCore-6.1.1\AndroidManifest.xml:34:9-64
uses-permission#android.permission.WRITE_SETTINGS
ADDED from [org.firstinspires.ftc:RobotCore:6.1.1] C:\Users\daniel\.gradle\caches\transforms-2\files-2.1\a1e640aef899fd475a91d3fc3efdadd1\jetified-RobotCore-6.1.1\AndroidManifest.xml:38:5-40:35
MERGED from [org.firstinspires.ftc:FtcCommon:6.1.1] C:\Users\daniel\.gradle\caches\transforms-2\files-2.1\8e1e0b436de64edfed69fee3d461afb8\jetified-FtcCommon-6.1.1\AndroidManifest.xml:19:5-21:35
MERGED from [org.firstinspires.ftc:FtcCommon:6.1.1] C:\Users\daniel\.gradle\caches\transforms-2\files-2.1\8e1e0b436de64edfed69fee3d461afb8\jetified-FtcCommon-6.1.1\AndroidManifest.xml:19:5-21:35
	android:required
		ADDED from [org.firstinspires.ftc:RobotCore:6.1.1] C:\Users\daniel\.gradle\caches\transforms-2\files-2.1\a1e640aef899fd475a91d3fc3efdadd1\jetified-RobotCore-6.1.1\AndroidManifest.xml:40:9-32
	android:name
		ADDED from [org.firstinspires.ftc:RobotCore:6.1.1] C:\Users\daniel\.gradle\caches\transforms-2\files-2.1\a1e640aef899fd475a91d3fc3efdadd1\jetified-RobotCore-6.1.1\AndroidManifest.xml:39:9-57
uses-permission#android.permission.SET_TIME_ZONE
ADDED from [org.firstinspires.ftc:RobotCore:6.1.1] C:\Users\daniel\.gradle\caches\transforms-2\files-2.1\a1e640aef899fd475a91d3fc3efdadd1\jetified-RobotCore-6.1.1\AndroidManifest.xml:43:5-45:35
	android:required
		ADDED from [org.firstinspires.ftc:RobotCore:6.1.1] C:\Users\daniel\.gradle\caches\transforms-2\files-2.1\a1e640aef899fd475a91d3fc3efdadd1\jetified-RobotCore-6.1.1\AndroidManifest.xml:45:9-32
	android:name
		ADDED from [org.firstinspires.ftc:RobotCore:6.1.1] C:\Users\daniel\.gradle\caches\transforms-2\files-2.1\a1e640aef899fd475a91d3fc3efdadd1\jetified-RobotCore-6.1.1\AndroidManifest.xml:44:9-56
uses-permission#android.permission.WAKE_LOCK
ADDED from [org.firstinspires.ftc:RobotCore:6.1.1] C:\Users\daniel\.gradle\caches\transforms-2\files-2.1\a1e640aef899fd475a91d3fc3efdadd1\jetified-RobotCore-6.1.1\AndroidManifest.xml:52:5-54:35
	android:required
		ADDED from [org.firstinspires.ftc:RobotCore:6.1.1] C:\Users\daniel\.gradle\caches\transforms-2\files-2.1\a1e640aef899fd475a91d3fc3efdadd1\jetified-RobotCore-6.1.1\AndroidManifest.xml:54:9-32
	android:name
		ADDED from [org.firstinspires.ftc:RobotCore:6.1.1] C:\Users\daniel\.gradle\caches\transforms-2\files-2.1\a1e640aef899fd475a91d3fc3efdadd1\jetified-RobotCore-6.1.1\AndroidManifest.xml:53:9-52
uses-permission#android.permission.CAMERA
ADDED from [org.firstinspires.ftc:RobotCore:6.1.1] C:\Users\daniel\.gradle\caches\transforms-2\files-2.1\a1e640aef899fd475a91d3fc3efdadd1\jetified-RobotCore-6.1.1\AndroidManifest.xml:55:5-65
	android:name
		ADDED from [org.firstinspires.ftc:RobotCore:6.1.1] C:\Users\daniel\.gradle\caches\transforms-2\files-2.1\a1e640aef899fd475a91d3fc3efdadd1\jetified-RobotCore-6.1.1\AndroidManifest.xml:55:22-62
uses-permission#android.permission.ACCESS_COARSE_LOCATION
ADDED from [org.firstinspires.ftc:RobotCore:6.1.1] C:\Users\daniel\.gradle\caches\transforms-2\files-2.1\a1e640aef899fd475a91d3fc3efdadd1\jetified-RobotCore-6.1.1\AndroidManifest.xml:56:5-58:35
	android:required
		ADDED from [org.firstinspires.ftc:RobotCore:6.1.1] C:\Users\daniel\.gradle\caches\transforms-2\files-2.1\a1e640aef899fd475a91d3fc3efdadd1\jetified-RobotCore-6.1.1\AndroidManifest.xml:58:9-32
	android:name
		ADDED from [org.firstinspires.ftc:RobotCore:6.1.1] C:\Users\daniel\.gradle\caches\transforms-2\files-2.1\a1e640aef899fd475a91d3fc3efdadd1\jetified-RobotCore-6.1.1\AndroidManifest.xml:57:9-65
uses-permission#android.permission.ACCESS_FINE_LOCATION
ADDED from [org.firstinspires.ftc:RobotCore:6.1.1] C:\Users\daniel\.gradle\caches\transforms-2\files-2.1\a1e640aef899fd475a91d3fc3efdadd1\jetified-RobotCore-6.1.1\AndroidManifest.xml:59:5-61:35
	android:required
		ADDED from [org.firstinspires.ftc:RobotCore:6.1.1] C:\Users\daniel\.gradle\caches\transforms-2\files-2.1\a1e640aef899fd475a91d3fc3efdadd1\jetified-RobotCore-6.1.1\AndroidManifest.xml:61:9-32
	android:name
		ADDED from [org.firstinspires.ftc:RobotCore:6.1.1] C:\Users\daniel\.gradle\caches\transforms-2\files-2.1\a1e640aef899fd475a91d3fc3efdadd1\jetified-RobotCore-6.1.1\AndroidManifest.xml:60:9-63
uses-permission#android.permission.READ_PHONE_STATE
ADDED from [org.firstinspires.ftc:RobotCore:6.1.1] C:\Users\daniel\.gradle\caches\transforms-2\files-2.1\a1e640aef899fd475a91d3fc3efdadd1\jetified-RobotCore-6.1.1\AndroidManifest.xml:62:5-64:35
	android:required
		ADDED from [org.firstinspires.ftc:RobotCore:6.1.1] C:\Users\daniel\.gradle\caches\transforms-2\files-2.1\a1e640aef899fd475a91d3fc3efdadd1\jetified-RobotCore-6.1.1\AndroidManifest.xml:64:9-32
	android:name
		ADDED from [org.firstinspires.ftc:RobotCore:6.1.1] C:\Users\daniel\.gradle\caches\transforms-2\files-2.1\a1e640aef899fd475a91d3fc3efdadd1\jetified-RobotCore-6.1.1\AndroidManifest.xml:63:9-59
uses-permission#com.revrobotics.permission.UPDATE_CONTROL_HUB
ADDED from [org.firstinspires.ftc:RobotCore:6.1.1] C:\Users\daniel\.gradle\caches\transforms-2\files-2.1\a1e640aef899fd475a91d3fc3efdadd1\jetified-RobotCore-6.1.1\AndroidManifest.xml:65:5-67:35
	android:required
		ADDED from [org.firstinspires.ftc:RobotCore:6.1.1] C:\Users\daniel\.gradle\caches\transforms-2\files-2.1\a1e640aef899fd475a91d3fc3efdadd1\jetified-RobotCore-6.1.1\AndroidManifest.xml:67:9-32
	android:name
		ADDED from [org.firstinspires.ftc:RobotCore:6.1.1] C:\Users\daniel\.gradle\caches\transforms-2\files-2.1\a1e640aef899fd475a91d3fc3efdadd1\jetified-RobotCore-6.1.1\AndroidManifest.xml:66:9-69
uses-feature#android.hardware.usb.accessory
ADDED from [org.firstinspires.ftc:RobotCore:6.1.1] C:\Users\daniel\.gradle\caches\transforms-2\files-2.1\a1e640aef899fd475a91d3fc3efdadd1\jetified-RobotCore-6.1.1\AndroidManifest.xml:69:5-67
	android:name
		ADDED from [org.firstinspires.ftc:RobotCore:6.1.1] C:\Users\daniel\.gradle\caches\transforms-2\files-2.1\a1e640aef899fd475a91d3fc3efdadd1\jetified-RobotCore-6.1.1\AndroidManifest.xml:69:19-64
uses-feature#0x00020000
ADDED from [org.firstinspires.ftc:RobotCore:6.1.1] C:\Users\daniel\.gradle\caches\transforms-2\files-2.1\a1e640aef899fd475a91d3fc3efdadd1\jetified-RobotCore-6.1.1\AndroidManifest.xml:70:5-54
	android:glEsVersion
		ADDED from [org.firstinspires.ftc:RobotCore:6.1.1] C:\Users\daniel\.gradle\caches\transforms-2\files-2.1\a1e640aef899fd475a91d3fc3efdadd1\jetified-RobotCore-6.1.1\AndroidManifest.xml:70:19-51
uses-feature#android.hardware.camera
ADDED from [org.firstinspires.ftc:RobotCore:6.1.1] C:\Users\daniel\.gradle\caches\transforms-2\files-2.1\a1e640aef899fd475a91d3fc3efdadd1\jetified-RobotCore-6.1.1\AndroidManifest.xml:84:5-60
	android:name
		ADDED from [org.firstinspires.ftc:RobotCore:6.1.1] C:\Users\daniel\.gradle\caches\transforms-2\files-2.1\a1e640aef899fd475a91d3fc3efdadd1\jetified-RobotCore-6.1.1\AndroidManifest.xml:84:19-57
provider#androidx.core.content.FileProvider
ADDED from [org.firstinspires.ftc:RobotCore:6.1.1] C:\Users\daniel\.gradle\caches\transforms-2\files-2.1\a1e640aef899fd475a91d3fc3efdadd1\jetified-RobotCore-6.1.1\AndroidManifest.xml:92:9-100:20
	android:grantUriPermissions
		ADDED from [org.firstinspires.ftc:RobotCore:6.1.1] C:\Users\daniel\.gradle\caches\transforms-2\files-2.1\a1e640aef899fd475a91d3fc3efdadd1\jetified-RobotCore-6.1.1\AndroidManifest.xml:96:13-47
	android:authorities
		ADDED from [org.firstinspires.ftc:RobotCore:6.1.1] C:\Users\daniel\.gradle\caches\transforms-2\files-2.1\a1e640aef899fd475a91d3fc3efdadd1\jetified-RobotCore-6.1.1\AndroidManifest.xml:94:13-60
	android:exported
		ADDED from [org.firstinspires.ftc:RobotCore:6.1.1] C:\Users\daniel\.gradle\caches\transforms-2\files-2.1\a1e640aef899fd475a91d3fc3efdadd1\jetified-RobotCore-6.1.1\AndroidManifest.xml:95:13-37
	android:name
		ADDED from [org.firstinspires.ftc:RobotCore:6.1.1] C:\Users\daniel\.gradle\caches\transforms-2\files-2.1\a1e640aef899fd475a91d3fc3efdadd1\jetified-RobotCore-6.1.1\AndroidManifest.xml:93:13-62
meta-data#android.support.FILE_PROVIDER_PATHS
ADDED from [org.firstinspires.ftc:RobotCore:6.1.1] C:\Users\daniel\.gradle\caches\transforms-2\files-2.1\a1e640aef899fd475a91d3fc3efdadd1\jetified-RobotCore-6.1.1\AndroidManifest.xml:97:13-99:63
	android:resource
		ADDED from [org.firstinspires.ftc:RobotCore:6.1.1] C:\Users\daniel\.gradle\caches\transforms-2\files-2.1\a1e640aef899fd475a91d3fc3efdadd1\jetified-RobotCore-6.1.1\AndroidManifest.xml:99:17-60
	android:name
		ADDED from [org.firstinspires.ftc:RobotCore:6.1.1] C:\Users\daniel\.gradle\caches\transforms-2\files-2.1\a1e640aef899fd475a91d3fc3efdadd1\jetified-RobotCore-6.1.1\AndroidManifest.xml:98:17-67
service#org.firstinspires.ftc.robotcore.internal.files.MediaTransferProtocolMonitorService
ADDED from [org.firstinspires.ftc:RobotCore:6.1.1] C:\Users\daniel\.gradle\caches\transforms-2\files-2.1\a1e640aef899fd475a91d3fc3efdadd1\jetified-RobotCore-6.1.1\AndroidManifest.xml:103:9-105:38
	android:enabled
		ADDED from [org.firstinspires.ftc:RobotCore:6.1.1] C:\Users\daniel\.gradle\caches\transforms-2\files-2.1\a1e640aef899fd475a91d3fc3efdadd1\jetified-RobotCore-6.1.1\AndroidManifest.xml:105:13-35
	android:name
		ADDED from [org.firstinspires.ftc:RobotCore:6.1.1] C:\Users\daniel\.gradle\caches\transforms-2\files-2.1\a1e640aef899fd475a91d3fc3efdadd1\jetified-RobotCore-6.1.1\AndroidManifest.xml:104:13-110
meta-data#autoStartService.org.firstinspires.ftc.robotcore.internal.files.MediaTransferProtocolMonitorService
ADDED from [org.firstinspires.ftc:RobotCore:6.1.1] C:\Users\daniel\.gradle\caches\transforms-2\files-2.1\a1e640aef899fd475a91d3fc3efdadd1\jetified-RobotCore-6.1.1\AndroidManifest.xml:107:9-109:41
	android:value
		ADDED from [org.firstinspires.ftc:RobotCore:6.1.1] C:\Users\daniel\.gradle\caches\transforms-2\files-2.1\a1e640aef899fd475a91d3fc3efdadd1\jetified-RobotCore-6.1.1\AndroidManifest.xml:109:13-38
	android:name
		ADDED from [org.firstinspires.ftc:RobotCore:6.1.1] C:\Users\daniel\.gradle\caches\transforms-2\files-2.1\a1e640aef899fd475a91d3fc3efdadd1\jetified-RobotCore-6.1.1\AndroidManifest.xml:108:13-127
service#org.firstinspires.ftc.onbotjava.OnBotJavaService
ADDED from [org.firstinspires.ftc:RobotCore:6.1.1] C:\Users\daniel\.gradle\caches\transforms-2\files-2.1\a1e640aef899fd475a91d3fc3efdadd1\jetified-RobotCore-6.1.1\AndroidManifest.xml:112:9-114:38
	android:enabled
		ADDED from [org.firstinspires.ftc:RobotCore:6.1.1] C:\Users\daniel\.gradle\caches\transforms-2\files-2.1\a1e640aef899fd475a91d3fc3efdadd1\jetified-RobotCore-6.1.1\AndroidManifest.xml:114:13-35
	android:name
		ADDED from [org.firstinspires.ftc:RobotCore:6.1.1] C:\Users\daniel\.gradle\caches\transforms-2\files-2.1\a1e640aef899fd475a91d3fc3efdadd1\jetified-RobotCore-6.1.1\AndroidManifest.xml:113:13-76
meta-data#autoStartService.org.firstinspires.ftc.onbotjava.OnBotJavaService
ADDED from [org.firstinspires.ftc:RobotCore:6.1.1] C:\Users\daniel\.gradle\caches\transforms-2\files-2.1\a1e640aef899fd475a91d3fc3efdadd1\jetified-RobotCore-6.1.1\AndroidManifest.xml:116:9-118:39
	android:value
		ADDED from [org.firstinspires.ftc:RobotCore:6.1.1] C:\Users\daniel\.gradle\caches\transforms-2\files-2.1\a1e640aef899fd475a91d3fc3efdadd1\jetified-RobotCore-6.1.1\AndroidManifest.xml:118:13-36
	android:name
		ADDED from [org.firstinspires.ftc:RobotCore:6.1.1] C:\Users\daniel\.gradle\caches\transforms-2\files-2.1\a1e640aef899fd475a91d3fc3efdadd1\jetified-RobotCore-6.1.1\AndroidManifest.xml:117:13-93
receiver#org.firstinspires.ftc.robotserver.internal.webserver.controlhubupdater.ChUpdaterCommManager$ChUpdaterBroadcastReceiver
ADDED from [org.firstinspires.ftc:RobotCore:6.1.1] C:\Users\daniel\.gradle\caches\transforms-2\files-2.1\a1e640aef899fd475a91d3fc3efdadd1\jetified-RobotCore-6.1.1\AndroidManifest.xml:120:9-127:20
	android:exported
		ADDED from [org.firstinspires.ftc:RobotCore:6.1.1] C:\Users\daniel\.gradle\caches\transforms-2\files-2.1\a1e640aef899fd475a91d3fc3efdadd1\jetified-RobotCore-6.1.1\AndroidManifest.xml:122:13-36
	android:permission
		ADDED from [org.firstinspires.ftc:RobotCore:6.1.1] C:\Users\daniel\.gradle\caches\transforms-2\files-2.1\a1e640aef899fd475a91d3fc3efdadd1\jetified-RobotCore-6.1.1\AndroidManifest.xml:123:13-69
	android:name
		ADDED from [org.firstinspires.ftc:RobotCore:6.1.1] C:\Users\daniel\.gradle\caches\transforms-2\files-2.1\a1e640aef899fd475a91d3fc3efdadd1\jetified-RobotCore-6.1.1\AndroidManifest.xml:121:13-146
intent-filter#action:name:com.revrobotics.controlhubupdater.broadcast.RESULT_BROADCAST
ADDED from [org.firstinspires.ftc:RobotCore:6.1.1] C:\Users\daniel\.gradle\caches\transforms-2\files-2.1\a1e640aef899fd475a91d3fc3efdadd1\jetified-RobotCore-6.1.1\AndroidManifest.xml:124:13-126:29
action#com.revrobotics.controlhubupdater.broadcast.RESULT_BROADCAST
ADDED from [org.firstinspires.ftc:RobotCore:6.1.1] C:\Users\daniel\.gradle\caches\transforms-2\files-2.1\a1e640aef899fd475a91d3fc3efdadd1\jetified-RobotCore-6.1.1\AndroidManifest.xml:125:17-103
	android:name
		ADDED from [org.firstinspires.ftc:RobotCore:6.1.1] C:\Users\daniel\.gradle\caches\transforms-2\files-2.1\a1e640aef899fd475a91d3fc3efdadd1\jetified-RobotCore-6.1.1\AndroidManifest.xml:125:25-100
activity#com.qualcomm.ftccommon.FtcRobotControllerSettingsActivity
ADDED from [org.firstinspires.ftc:FtcCommon:6.1.1] C:\Users\daniel\.gradle\caches\transforms-2\files-2.1\8e1e0b436de64edfed69fee3d461afb8\jetified-FtcCommon-6.1.1\AndroidManifest.xml:26:9-30:20
	android:label
		ADDED from [org.firstinspires.ftc:FtcCommon:6.1.1] C:\Users\daniel\.gradle\caches\transforms-2\files-2.1\8e1e0b436de64edfed69fee3d461afb8\jetified-FtcCommon-6.1.1\AndroidManifest.xml:29:13-54
	android:exported
		ADDED from [org.firstinspires.ftc:FtcCommon:6.1.1] C:\Users\daniel\.gradle\caches\transforms-2\files-2.1\8e1e0b436de64edfed69fee3d461afb8\jetified-FtcCommon-6.1.1\AndroidManifest.xml:28:13-36
	android:name
		ADDED from [org.firstinspires.ftc:FtcCommon:6.1.1] C:\Users\daniel\.gradle\caches\transforms-2\files-2.1\8e1e0b436de64edfed69fee3d461afb8\jetified-FtcCommon-6.1.1\AndroidManifest.xml:27:13-85
activity#com.qualcomm.ftccommon.configuration.FtcLoadFileActivity
ADDED from [org.firstinspires.ftc:FtcCommon:6.1.1] C:\Users\daniel\.gradle\caches\transforms-2\files-2.1\8e1e0b436de64edfed69fee3d461afb8\jetified-FtcCommon-6.1.1\AndroidManifest.xml:31:9-36:20
	android:label
		ADDED from [org.firstinspires.ftc:FtcCommon:6.1.1] C:\Users\daniel\.gradle\caches\transforms-2\files-2.1\8e1e0b436de64edfed69fee3d461afb8\jetified-FtcCommon-6.1.1\AndroidManifest.xml:35:13-55
	android:exported
		ADDED from [org.firstinspires.ftc:FtcCommon:6.1.1] C:\Users\daniel\.gradle\caches\transforms-2\files-2.1\8e1e0b436de64edfed69fee3d461afb8\jetified-FtcCommon-6.1.1\AndroidManifest.xml:34:13-36
	android:configChanges
		ADDED from [org.firstinspires.ftc:FtcCommon:6.1.1] C:\Users\daniel\.gradle\caches\transforms-2\files-2.1\8e1e0b436de64edfed69fee3d461afb8\jetified-FtcCommon-6.1.1\AndroidManifest.xml:33:13-59
	android:name
		ADDED from [org.firstinspires.ftc:FtcCommon:6.1.1] C:\Users\daniel\.gradle\caches\transforms-2\files-2.1\8e1e0b436de64edfed69fee3d461afb8\jetified-FtcCommon-6.1.1\AndroidManifest.xml:32:13-84
activity#com.qualcomm.ftccommon.configuration.ConfigureFromTemplateActivity
ADDED from [org.firstinspires.ftc:FtcCommon:6.1.1] C:\Users\daniel\.gradle\caches\transforms-2\files-2.1\8e1e0b436de64edfed69fee3d461afb8\jetified-FtcCommon-6.1.1\AndroidManifest.xml:37:9-42:20
	android:label
		ADDED from [org.firstinspires.ftc:FtcCommon:6.1.1] C:\Users\daniel\.gradle\caches\transforms-2\files-2.1\8e1e0b436de64edfed69fee3d461afb8\jetified-FtcCommon-6.1.1\AndroidManifest.xml:41:13-70
	android:exported
		ADDED from [org.firstinspires.ftc:FtcCommon:6.1.1] C:\Users\daniel\.gradle\caches\transforms-2\files-2.1\8e1e0b436de64edfed69fee3d461afb8\jetified-FtcCommon-6.1.1\AndroidManifest.xml:40:13-36
	android:configChanges
		ADDED from [org.firstinspires.ftc:FtcCommon:6.1.1] C:\Users\daniel\.gradle\caches\transforms-2\files-2.1\8e1e0b436de64edfed69fee3d461afb8\jetified-FtcCommon-6.1.1\AndroidManifest.xml:39:13-59
	android:name
		ADDED from [org.firstinspires.ftc:FtcCommon:6.1.1] C:\Users\daniel\.gradle\caches\transforms-2\files-2.1\8e1e0b436de64edfed69fee3d461afb8\jetified-FtcCommon-6.1.1\AndroidManifest.xml:38:13-94
activity#com.qualcomm.ftccommon.ViewLogsActivity
ADDED from [org.firstinspires.ftc:FtcCommon:6.1.1] C:\Users\daniel\.gradle\caches\transforms-2\files-2.1\8e1e0b436de64edfed69fee3d461afb8\jetified-FtcCommon-6.1.1\AndroidManifest.xml:43:9-48:20
	android:label
		ADDED from [org.firstinspires.ftc:FtcCommon:6.1.1] C:\Users\daniel\.gradle\caches\transforms-2\files-2.1\8e1e0b436de64edfed69fee3d461afb8\jetified-FtcCommon-6.1.1\AndroidManifest.xml:47:13-55
	android:exported
		ADDED from [org.firstinspires.ftc:FtcCommon:6.1.1] C:\Users\daniel\.gradle\caches\transforms-2\files-2.1\8e1e0b436de64edfed69fee3d461afb8\jetified-FtcCommon-6.1.1\AndroidManifest.xml:46:13-36
	android:configChanges
		ADDED from [org.firstinspires.ftc:FtcCommon:6.1.1] C:\Users\daniel\.gradle\caches\transforms-2\files-2.1\8e1e0b436de64edfed69fee3d461afb8\jetified-FtcCommon-6.1.1\AndroidManifest.xml:45:13-59
	android:name
		ADDED from [org.firstinspires.ftc:FtcCommon:6.1.1] C:\Users\daniel\.gradle\caches\transforms-2\files-2.1\8e1e0b436de64edfed69fee3d461afb8\jetified-FtcCommon-6.1.1\AndroidManifest.xml:44:13-67
activity#com.qualcomm.ftccommon.configuration.FtcConfigurationActivity
ADDED from [org.firstinspires.ftc:FtcCommon:6.1.1] C:\Users\daniel\.gradle\caches\transforms-2\files-2.1\8e1e0b436de64edfed69fee3d461afb8\jetified-FtcCommon-6.1.1\AndroidManifest.xml:49:9-53:20
	android:label
		ADDED from [org.firstinspires.ftc:FtcCommon:6.1.1] C:\Users\daniel\.gradle\caches\transforms-2\files-2.1\8e1e0b436de64edfed69fee3d461afb8\jetified-FtcCommon-6.1.1\AndroidManifest.xml:52:13-45
	android:configChanges
		ADDED from [org.firstinspires.ftc:FtcCommon:6.1.1] C:\Users\daniel\.gradle\caches\transforms-2\files-2.1\8e1e0b436de64edfed69fee3d461afb8\jetified-FtcCommon-6.1.1\AndroidManifest.xml:51:13-59
	android:name
		ADDED from [org.firstinspires.ftc:FtcCommon:6.1.1] C:\Users\daniel\.gradle\caches\transforms-2\files-2.1\8e1e0b436de64edfed69fee3d461afb8\jetified-FtcCommon-6.1.1\AndroidManifest.xml:50:13-89
activity#com.qualcomm.ftccommon.configuration.FtcNewFileActivity
ADDED from [org.firstinspires.ftc:FtcCommon:6.1.1] C:\Users\daniel\.gradle\caches\transforms-2\files-2.1\8e1e0b436de64edfed69fee3d461afb8\jetified-FtcCommon-6.1.1\AndroidManifest.xml:54:9-58:20
	android:label
		ADDED from [org.firstinspires.ftc:FtcCommon:6.1.1] C:\Users\daniel\.gradle\caches\transforms-2\files-2.1\8e1e0b436de64edfed69fee3d461afb8\jetified-FtcCommon-6.1.1\AndroidManifest.xml:57:13-45
	android:configChanges
		ADDED from [org.firstinspires.ftc:FtcCommon:6.1.1] C:\Users\daniel\.gradle\caches\transforms-2\files-2.1\8e1e0b436de64edfed69fee3d461afb8\jetified-FtcCommon-6.1.1\AndroidManifest.xml:56:13-59
	android:name
		ADDED from [org.firstinspires.ftc:FtcCommon:6.1.1] C:\Users\daniel\.gradle\caches\transforms-2\files-2.1\8e1e0b436de64edfed69fee3d461afb8\jetified-FtcCommon-6.1.1\AndroidManifest.xml:55:13-83
activity#com.qualcomm.ftccommon.ConfigWifiDirectActivity
ADDED from [org.firstinspires.ftc:FtcCommon:6.1.1] C:\Users\daniel\.gradle\caches\transforms-2\files-2.1\8e1e0b436de64edfed69fee3d461afb8\jetified-FtcCommon-6.1.1\AndroidManifest.xml:59:9-62:73
	android:label
		ADDED from [org.firstinspires.ftc:FtcCommon:6.1.1] C:\Users\daniel\.gradle\caches\transforms-2\files-2.1\8e1e0b436de64edfed69fee3d461afb8\jetified-FtcCommon-6.1.1\AndroidManifest.xml:62:13-70
	android:exported
		ADDED from [org.firstinspires.ftc:FtcCommon:6.1.1] C:\Users\daniel\.gradle\caches\transforms-2\files-2.1\8e1e0b436de64edfed69fee3d461afb8\jetified-FtcCommon-6.1.1\AndroidManifest.xml:61:13-36
	android:name
		ADDED from [org.firstinspires.ftc:FtcCommon:6.1.1] C:\Users\daniel\.gradle\caches\transforms-2\files-2.1\8e1e0b436de64edfed69fee3d461afb8\jetified-FtcCommon-6.1.1\AndroidManifest.xml:60:13-75
activity#com.qualcomm.ftccommon.FtcAdvancedRCSettingsActivity
ADDED from [org.firstinspires.ftc:FtcCommon:6.1.1] C:\Users\daniel\.gradle\caches\transforms-2\files-2.1\8e1e0b436de64edfed69fee3d461afb8\jetified-FtcCommon-6.1.1\AndroidManifest.xml:63:9-67:20
	android:label
		ADDED from [org.firstinspires.ftc:FtcCommon:6.1.1] C:\Users\daniel\.gradle\caches\transforms-2\files-2.1\8e1e0b436de64edfed69fee3d461afb8\jetified-FtcCommon-6.1.1\AndroidManifest.xml:66:13-60
	android:exported
		ADDED from [org.firstinspires.ftc:FtcCommon:6.1.1] C:\Users\daniel\.gradle\caches\transforms-2\files-2.1\8e1e0b436de64edfed69fee3d461afb8\jetified-FtcCommon-6.1.1\AndroidManifest.xml:65:13-36
	android:name
		ADDED from [org.firstinspires.ftc:FtcCommon:6.1.1] C:\Users\daniel\.gradle\caches\transforms-2\files-2.1\8e1e0b436de64edfed69fee3d461afb8\jetified-FtcCommon-6.1.1\AndroidManifest.xml:64:13-80
activity#com.qualcomm.ftccommon.FtcLynxFirmwareUpdateActivity
ADDED from [org.firstinspires.ftc:FtcCommon:6.1.1] C:\Users\daniel\.gradle\caches\transforms-2\files-2.1\8e1e0b436de64edfed69fee3d461afb8\jetified-FtcCommon-6.1.1\AndroidManifest.xml:68:9-71:20
	android:exported
		ADDED from [org.firstinspires.ftc:FtcCommon:6.1.1] C:\Users\daniel\.gradle\caches\transforms-2\files-2.1\8e1e0b436de64edfed69fee3d461afb8\jetified-FtcCommon-6.1.1\AndroidManifest.xml:70:13-36
	android:name
		ADDED from [org.firstinspires.ftc:FtcCommon:6.1.1] C:\Users\daniel\.gradle\caches\transforms-2\files-2.1\8e1e0b436de64edfed69fee3d461afb8\jetified-FtcCommon-6.1.1\AndroidManifest.xml:69:13-80
activity#com.qualcomm.ftccommon.FtcLynxModuleAddressUpdateActivity
ADDED from [org.firstinspires.ftc:FtcCommon:6.1.1] C:\Users\daniel\.gradle\caches\transforms-2\files-2.1\8e1e0b436de64edfed69fee3d461afb8\jetified-FtcCommon-6.1.1\AndroidManifest.xml:72:9-75:20
	android:exported
		ADDED from [org.firstinspires.ftc:FtcCommon:6.1.1] C:\Users\daniel\.gradle\caches\transforms-2\files-2.1\8e1e0b436de64edfed69fee3d461afb8\jetified-FtcCommon-6.1.1\AndroidManifest.xml:74:13-36
	android:name
		ADDED from [org.firstinspires.ftc:FtcCommon:6.1.1] C:\Users\daniel\.gradle\caches\transforms-2\files-2.1\8e1e0b436de64edfed69fee3d461afb8\jetified-FtcCommon-6.1.1\AndroidManifest.xml:73:13-85
activity#com.qualcomm.ftccommon.FtcWifiDirectChannelSelectorActivity
ADDED from [org.firstinspires.ftc:FtcCommon:6.1.1] C:\Users\daniel\.gradle\caches\transforms-2\files-2.1\8e1e0b436de64edfed69fee3d461afb8\jetified-FtcCommon-6.1.1\AndroidManifest.xml:76:9-80:20
	android:label
		ADDED from [org.firstinspires.ftc:FtcCommon:6.1.1] C:\Users\daniel\.gradle\caches\transforms-2\files-2.1\8e1e0b436de64edfed69fee3d461afb8\jetified-FtcCommon-6.1.1\AndroidManifest.xml:79:13-73
	android:exported
		ADDED from [org.firstinspires.ftc:FtcCommon:6.1.1] C:\Users\daniel\.gradle\caches\transforms-2\files-2.1\8e1e0b436de64edfed69fee3d461afb8\jetified-FtcCommon-6.1.1\AndroidManifest.xml:78:13-36
	android:name
		ADDED from [org.firstinspires.ftc:FtcCommon:6.1.1] C:\Users\daniel\.gradle\caches\transforms-2\files-2.1\8e1e0b436de64edfed69fee3d461afb8\jetified-FtcCommon-6.1.1\AndroidManifest.xml:77:13-87
activity#com.qualcomm.ftccommon.FtcWifiDirectRememberedGroupsActivity
ADDED from [org.firstinspires.ftc:FtcCommon:6.1.1] C:\Users\daniel\.gradle\caches\transforms-2\files-2.1\8e1e0b436de64edfed69fee3d461afb8\jetified-FtcCommon-6.1.1\AndroidManifest.xml:81:9-85:20
	android:label
		ADDED from [org.firstinspires.ftc:FtcCommon:6.1.1] C:\Users\daniel\.gradle\caches\transforms-2\files-2.1\8e1e0b436de64edfed69fee3d461afb8\jetified-FtcCommon-6.1.1\AndroidManifest.xml:84:13-81
	android:exported
		ADDED from [org.firstinspires.ftc:FtcCommon:6.1.1] C:\Users\daniel\.gradle\caches\transforms-2\files-2.1\8e1e0b436de64edfed69fee3d461afb8\jetified-FtcCommon-6.1.1\AndroidManifest.xml:83:13-36
	android:name
		ADDED from [org.firstinspires.ftc:FtcCommon:6.1.1] C:\Users\daniel\.gradle\caches\transforms-2\files-2.1\8e1e0b436de64edfed69fee3d461afb8\jetified-FtcCommon-6.1.1\AndroidManifest.xml:82:13-88
activity#com.qualcomm.ftccommon.AboutActivity
ADDED from [org.firstinspires.ftc:FtcCommon:6.1.1] C:\Users\daniel\.gradle\caches\transforms-2\files-2.1\8e1e0b436de64edfed69fee3d461afb8\jetified-FtcCommon-6.1.1\AndroidManifest.xml:86:9-89:20
	android:label
		ADDED from [org.firstinspires.ftc:FtcCommon:6.1.1] C:\Users\daniel\.gradle\caches\transforms-2\files-2.1\8e1e0b436de64edfed69fee3d461afb8\jetified-FtcCommon-6.1.1\AndroidManifest.xml:88:13-51
	android:name
		ADDED from [org.firstinspires.ftc:FtcCommon:6.1.1] C:\Users\daniel\.gradle\caches\transforms-2\files-2.1\8e1e0b436de64edfed69fee3d461afb8\jetified-FtcCommon-6.1.1\AndroidManifest.xml:87:13-64
activity#com.qualcomm.ftccommon.FtcAboutActivity
ADDED from [org.firstinspires.ftc:FtcCommon:6.1.1] C:\Users\daniel\.gradle\caches\transforms-2\files-2.1\8e1e0b436de64edfed69fee3d461afb8\jetified-FtcCommon-6.1.1\AndroidManifest.xml:90:9-93:20
	android:label
		ADDED from [org.firstinspires.ftc:FtcCommon:6.1.1] C:\Users\daniel\.gradle\caches\transforms-2\files-2.1\8e1e0b436de64edfed69fee3d461afb8\jetified-FtcCommon-6.1.1\AndroidManifest.xml:92:13-55
	android:name
		ADDED from [org.firstinspires.ftc:FtcCommon:6.1.1] C:\Users\daniel\.gradle\caches\transforms-2\files-2.1\8e1e0b436de64edfed69fee3d461afb8\jetified-FtcCommon-6.1.1\AndroidManifest.xml:91:13-67
activity#com.qualcomm.ftccommon.configuration.EditSwapUsbDevices
ADDED from [org.firstinspires.ftc:FtcCommon:6.1.1] C:\Users\daniel\.gradle\caches\transforms-2\files-2.1\8e1e0b436de64edfed69fee3d461afb8\jetified-FtcCommon-6.1.1\AndroidManifest.xml:94:9-99:20
	android:label
		ADDED from [org.firstinspires.ftc:FtcCommon:6.1.1] C:\Users\daniel\.gradle\caches\transforms-2\files-2.1\8e1e0b436de64edfed69fee3d461afb8\jetified-FtcCommon-6.1.1\AndroidManifest.xml:97:13-63
	android:windowSoftInputMode
		ADDED from [org.firstinspires.ftc:FtcCommon:6.1.1] C:\Users\daniel\.gradle\caches\transforms-2\files-2.1\8e1e0b436de64edfed69fee3d461afb8\jetified-FtcCommon-6.1.1\AndroidManifest.xml:98:13-54
	android:configChanges
		ADDED from [org.firstinspires.ftc:FtcCommon:6.1.1] C:\Users\daniel\.gradle\caches\transforms-2\files-2.1\8e1e0b436de64edfed69fee3d461afb8\jetified-FtcCommon-6.1.1\AndroidManifest.xml:96:13-59
	android:name
		ADDED from [org.firstinspires.ftc:FtcCommon:6.1.1] C:\Users\daniel\.gradle\caches\transforms-2\files-2.1\8e1e0b436de64edfed69fee3d461afb8\jetified-FtcCommon-6.1.1\AndroidManifest.xml:95:13-83
activity#com.qualcomm.ftccommon.configuration.EditMotorControllerActivity
ADDED from [org.firstinspires.ftc:FtcCommon:6.1.1] C:\Users\daniel\.gradle\caches\transforms-2\files-2.1\8e1e0b436de64edfed69fee3d461afb8\jetified-FtcCommon-6.1.1\AndroidManifest.xml:100:9-105:20
	android:label
		ADDED from [org.firstinspires.ftc:FtcCommon:6.1.1] C:\Users\daniel\.gradle\caches\transforms-2\files-2.1\8e1e0b436de64edfed69fee3d461afb8\jetified-FtcCommon-6.1.1\AndroidManifest.xml:103:13-67
	android:windowSoftInputMode
		ADDED from [org.firstinspires.ftc:FtcCommon:6.1.1] C:\Users\daniel\.gradle\caches\transforms-2\files-2.1\8e1e0b436de64edfed69fee3d461afb8\jetified-FtcCommon-6.1.1\AndroidManifest.xml:104:13-54
	android:configChanges
		ADDED from [org.firstinspires.ftc:FtcCommon:6.1.1] C:\Users\daniel\.gradle\caches\transforms-2\files-2.1\8e1e0b436de64edfed69fee3d461afb8\jetified-FtcCommon-6.1.1\AndroidManifest.xml:102:13-59
	android:name
		ADDED from [org.firstinspires.ftc:FtcCommon:6.1.1] C:\Users\daniel\.gradle\caches\transforms-2\files-2.1\8e1e0b436de64edfed69fee3d461afb8\jetified-FtcCommon-6.1.1\AndroidManifest.xml:101:13-92
activity#com.qualcomm.ftccommon.configuration.EditLegacyMotorControllerActivity
ADDED from [org.firstinspires.ftc:FtcCommon:6.1.1] C:\Users\daniel\.gradle\caches\transforms-2\files-2.1\8e1e0b436de64edfed69fee3d461afb8\jetified-FtcCommon-6.1.1\AndroidManifest.xml:106:9-111:20
	android:label
		ADDED from [org.firstinspires.ftc:FtcCommon:6.1.1] C:\Users\daniel\.gradle\caches\transforms-2\files-2.1\8e1e0b436de64edfed69fee3d461afb8\jetified-FtcCommon-6.1.1\AndroidManifest.xml:109:13-67
	android:windowSoftInputMode
		ADDED from [org.firstinspires.ftc:FtcCommon:6.1.1] C:\Users\daniel\.gradle\caches\transforms-2\files-2.1\8e1e0b436de64edfed69fee3d461afb8\jetified-FtcCommon-6.1.1\AndroidManifest.xml:110:13-54
	android:configChanges
		ADDED from [org.firstinspires.ftc:FtcCommon:6.1.1] C:\Users\daniel\.gradle\caches\transforms-2\files-2.1\8e1e0b436de64edfed69fee3d461afb8\jetified-FtcCommon-6.1.1\AndroidManifest.xml:108:13-59
	android:name
		ADDED from [org.firstinspires.ftc:FtcCommon:6.1.1] C:\Users\daniel\.gradle\caches\transforms-2\files-2.1\8e1e0b436de64edfed69fee3d461afb8\jetified-FtcCommon-6.1.1\AndroidManifest.xml:107:13-98
activity#com.qualcomm.ftccommon.configuration.EditMotorListActivity
ADDED from [org.firstinspires.ftc:FtcCommon:6.1.1] C:\Users\daniel\.gradle\caches\transforms-2\files-2.1\8e1e0b436de64edfed69fee3d461afb8\jetified-FtcCommon-6.1.1\AndroidManifest.xml:112:9-117:20
	android:label
		ADDED from [org.firstinspires.ftc:FtcCommon:6.1.1] C:\Users\daniel\.gradle\caches\transforms-2\files-2.1\8e1e0b436de64edfed69fee3d461afb8\jetified-FtcCommon-6.1.1\AndroidManifest.xml:115:13-67
	android:windowSoftInputMode
		ADDED from [org.firstinspires.ftc:FtcCommon:6.1.1] C:\Users\daniel\.gradle\caches\transforms-2\files-2.1\8e1e0b436de64edfed69fee3d461afb8\jetified-FtcCommon-6.1.1\AndroidManifest.xml:116:13-54
	android:configChanges
		ADDED from [org.firstinspires.ftc:FtcCommon:6.1.1] C:\Users\daniel\.gradle\caches\transforms-2\files-2.1\8e1e0b436de64edfed69fee3d461afb8\jetified-FtcCommon-6.1.1\AndroidManifest.xml:114:13-59
	android:name
		ADDED from [org.firstinspires.ftc:FtcCommon:6.1.1] C:\Users\daniel\.gradle\caches\transforms-2\files-2.1\8e1e0b436de64edfed69fee3d461afb8\jetified-FtcCommon-6.1.1\AndroidManifest.xml:113:13-86
activity#com.qualcomm.ftccommon.configuration.EditServoControllerActivity
ADDED from [org.firstinspires.ftc:FtcCommon:6.1.1] C:\Users\daniel\.gradle\caches\transforms-2\files-2.1\8e1e0b436de64edfed69fee3d461afb8\jetified-FtcCommon-6.1.1\AndroidManifest.xml:118:9-123:20
	android:label
		ADDED from [org.firstinspires.ftc:FtcCommon:6.1.1] C:\Users\daniel\.gradle\caches\transforms-2\files-2.1\8e1e0b436de64edfed69fee3d461afb8\jetified-FtcCommon-6.1.1\AndroidManifest.xml:121:13-67
	android:windowSoftInputMode
		ADDED from [org.firstinspires.ftc:FtcCommon:6.1.1] C:\Users\daniel\.gradle\caches\transforms-2\files-2.1\8e1e0b436de64edfed69fee3d461afb8\jetified-FtcCommon-6.1.1\AndroidManifest.xml:122:13-67
	android:configChanges
		ADDED from [org.firstinspires.ftc:FtcCommon:6.1.1] C:\Users\daniel\.gradle\caches\transforms-2\files-2.1\8e1e0b436de64edfed69fee3d461afb8\jetified-FtcCommon-6.1.1\AndroidManifest.xml:120:13-59
	android:name
		ADDED from [org.firstinspires.ftc:FtcCommon:6.1.1] C:\Users\daniel\.gradle\caches\transforms-2\files-2.1\8e1e0b436de64edfed69fee3d461afb8\jetified-FtcCommon-6.1.1\AndroidManifest.xml:119:13-92
activity#com.qualcomm.ftccommon.configuration.EditLegacyServoControllerActivity
ADDED from [org.firstinspires.ftc:FtcCommon:6.1.1] C:\Users\daniel\.gradle\caches\transforms-2\files-2.1\8e1e0b436de64edfed69fee3d461afb8\jetified-FtcCommon-6.1.1\AndroidManifest.xml:124:9-129:20
	android:label
		ADDED from [org.firstinspires.ftc:FtcCommon:6.1.1] C:\Users\daniel\.gradle\caches\transforms-2\files-2.1\8e1e0b436de64edfed69fee3d461afb8\jetified-FtcCommon-6.1.1\AndroidManifest.xml:127:13-67
	android:windowSoftInputMode
		ADDED from [org.firstinspires.ftc:FtcCommon:6.1.1] C:\Users\daniel\.gradle\caches\transforms-2\files-2.1\8e1e0b436de64edfed69fee3d461afb8\jetified-FtcCommon-6.1.1\AndroidManifest.xml:128:13-67
	android:configChanges
		ADDED from [org.firstinspires.ftc:FtcCommon:6.1.1] C:\Users\daniel\.gradle\caches\transforms-2\files-2.1\8e1e0b436de64edfed69fee3d461afb8\jetified-FtcCommon-6.1.1\AndroidManifest.xml:126:13-59
	android:name
		ADDED from [org.firstinspires.ftc:FtcCommon:6.1.1] C:\Users\daniel\.gradle\caches\transforms-2\files-2.1\8e1e0b436de64edfed69fee3d461afb8\jetified-FtcCommon-6.1.1\AndroidManifest.xml:125:13-98
activity#com.qualcomm.ftccommon.configuration.EditServoListActivity
ADDED from [org.firstinspires.ftc:FtcCommon:6.1.1] C:\Users\daniel\.gradle\caches\transforms-2\files-2.1\8e1e0b436de64edfed69fee3d461afb8\jetified-FtcCommon-6.1.1\AndroidManifest.xml:130:9-135:20
	android:label
		ADDED from [org.firstinspires.ftc:FtcCommon:6.1.1] C:\Users\daniel\.gradle\caches\transforms-2\files-2.1\8e1e0b436de64edfed69fee3d461afb8\jetified-FtcCommon-6.1.1\AndroidManifest.xml:133:13-67
	android:windowSoftInputMode
		ADDED from [org.firstinspires.ftc:FtcCommon:6.1.1] C:\Users\daniel\.gradle\caches\transforms-2\files-2.1\8e1e0b436de64edfed69fee3d461afb8\jetified-FtcCommon-6.1.1\AndroidManifest.xml:134:13-67
	android:configChanges
		ADDED from [org.firstinspires.ftc:FtcCommon:6.1.1] C:\Users\daniel\.gradle\caches\transforms-2\files-2.1\8e1e0b436de64edfed69fee3d461afb8\jetified-FtcCommon-6.1.1\AndroidManifest.xml:132:13-59
	android:name
		ADDED from [org.firstinspires.ftc:FtcCommon:6.1.1] C:\Users\daniel\.gradle\caches\transforms-2\files-2.1\8e1e0b436de64edfed69fee3d461afb8\jetified-FtcCommon-6.1.1\AndroidManifest.xml:131:13-86
activity#com.qualcomm.ftccommon.configuration.EditLegacyModuleControllerActivity
ADDED from [org.firstinspires.ftc:FtcCommon:6.1.1] C:\Users\daniel\.gradle\caches\transforms-2\files-2.1\8e1e0b436de64edfed69fee3d461afb8\jetified-FtcCommon-6.1.1\AndroidManifest.xml:136:9-141:20
	android:label
		ADDED from [org.firstinspires.ftc:FtcCommon:6.1.1] C:\Users\daniel\.gradle\caches\transforms-2\files-2.1\8e1e0b436de64edfed69fee3d461afb8\jetified-FtcCommon-6.1.1\AndroidManifest.xml:139:13-75
	android:windowSoftInputMode
		ADDED from [org.firstinspires.ftc:FtcCommon:6.1.1] C:\Users\daniel\.gradle\caches\transforms-2\files-2.1\8e1e0b436de64edfed69fee3d461afb8\jetified-FtcCommon-6.1.1\AndroidManifest.xml:140:13-67
	android:configChanges
		ADDED from [org.firstinspires.ftc:FtcCommon:6.1.1] C:\Users\daniel\.gradle\caches\transforms-2\files-2.1\8e1e0b436de64edfed69fee3d461afb8\jetified-FtcCommon-6.1.1\AndroidManifest.xml:138:13-59
	android:name
		ADDED from [org.firstinspires.ftc:FtcCommon:6.1.1] C:\Users\daniel\.gradle\caches\transforms-2\files-2.1\8e1e0b436de64edfed69fee3d461afb8\jetified-FtcCommon-6.1.1\AndroidManifest.xml:137:13-99
activity#com.qualcomm.ftccommon.configuration.EditMatrixControllerActivity
ADDED from [org.firstinspires.ftc:FtcCommon:6.1.1] C:\Users\daniel\.gradle\caches\transforms-2\files-2.1\8e1e0b436de64edfed69fee3d461afb8\jetified-FtcCommon-6.1.1\AndroidManifest.xml:142:9-147:20
	android:label
		ADDED from [org.firstinspires.ftc:FtcCommon:6.1.1] C:\Users\daniel\.gradle\caches\transforms-2\files-2.1\8e1e0b436de64edfed69fee3d461afb8\jetified-FtcCommon-6.1.1\AndroidManifest.xml:145:13-68
	android:windowSoftInputMode
		ADDED from [org.firstinspires.ftc:FtcCommon:6.1.1] C:\Users\daniel\.gradle\caches\transforms-2\files-2.1\8e1e0b436de64edfed69fee3d461afb8\jetified-FtcCommon-6.1.1\AndroidManifest.xml:146:13-67
	android:configChanges
		ADDED from [org.firstinspires.ftc:FtcCommon:6.1.1] C:\Users\daniel\.gradle\caches\transforms-2\files-2.1\8e1e0b436de64edfed69fee3d461afb8\jetified-FtcCommon-6.1.1\AndroidManifest.xml:144:13-59
	android:name
		ADDED from [org.firstinspires.ftc:FtcCommon:6.1.1] C:\Users\daniel\.gradle\caches\transforms-2\files-2.1\8e1e0b436de64edfed69fee3d461afb8\jetified-FtcCommon-6.1.1\AndroidManifest.xml:143:13-93
activity#com.qualcomm.ftccommon.configuration.EditDeviceInterfaceModuleActivity
ADDED from [org.firstinspires.ftc:FtcCommon:6.1.1] C:\Users\daniel\.gradle\caches\transforms-2\files-2.1\8e1e0b436de64edfed69fee3d461afb8\jetified-FtcCommon-6.1.1\AndroidManifest.xml:148:9-153:20
	android:label
		ADDED from [org.firstinspires.ftc:FtcCommon:6.1.1] C:\Users\daniel\.gradle\caches\transforms-2\files-2.1\8e1e0b436de64edfed69fee3d461afb8\jetified-FtcCommon-6.1.1\AndroidManifest.xml:151:13-90
	android:windowSoftInputMode
		ADDED from [org.firstinspires.ftc:FtcCommon:6.1.1] C:\Users\daniel\.gradle\caches\transforms-2\files-2.1\8e1e0b436de64edfed69fee3d461afb8\jetified-FtcCommon-6.1.1\AndroidManifest.xml:152:13-67
	android:configChanges
		ADDED from [org.firstinspires.ftc:FtcCommon:6.1.1] C:\Users\daniel\.gradle\caches\transforms-2\files-2.1\8e1e0b436de64edfed69fee3d461afb8\jetified-FtcCommon-6.1.1\AndroidManifest.xml:150:13-59
	android:name
		ADDED from [org.firstinspires.ftc:FtcCommon:6.1.1] C:\Users\daniel\.gradle\caches\transforms-2\files-2.1\8e1e0b436de64edfed69fee3d461afb8\jetified-FtcCommon-6.1.1\AndroidManifest.xml:149:13-98
activity#com.qualcomm.ftccommon.configuration.EditLynxModuleActivity
ADDED from [org.firstinspires.ftc:FtcCommon:6.1.1] C:\Users\daniel\.gradle\caches\transforms-2\files-2.1\8e1e0b436de64edfed69fee3d461afb8\jetified-FtcCommon-6.1.1\AndroidManifest.xml:154:9-159:20
	android:label
		ADDED from [org.firstinspires.ftc:FtcCommon:6.1.1] C:\Users\daniel\.gradle\caches\transforms-2\files-2.1\8e1e0b436de64edfed69fee3d461afb8\jetified-FtcCommon-6.1.1\AndroidManifest.xml:157:13-73
	android:windowSoftInputMode
		ADDED from [org.firstinspires.ftc:FtcCommon:6.1.1] C:\Users\daniel\.gradle\caches\transforms-2\files-2.1\8e1e0b436de64edfed69fee3d461afb8\jetified-FtcCommon-6.1.1\AndroidManifest.xml:158:13-67
	android:configChanges
		ADDED from [org.firstinspires.ftc:FtcCommon:6.1.1] C:\Users\daniel\.gradle\caches\transforms-2\files-2.1\8e1e0b436de64edfed69fee3d461afb8\jetified-FtcCommon-6.1.1\AndroidManifest.xml:156:13-59
	android:name
		ADDED from [org.firstinspires.ftc:FtcCommon:6.1.1] C:\Users\daniel\.gradle\caches\transforms-2\files-2.1\8e1e0b436de64edfed69fee3d461afb8\jetified-FtcCommon-6.1.1\AndroidManifest.xml:155:13-87
activity#com.qualcomm.ftccommon.configuration.EditLynxUsbDeviceActivity
ADDED from [org.firstinspires.ftc:FtcCommon:6.1.1] C:\Users\daniel\.gradle\caches\transforms-2\files-2.1\8e1e0b436de64edfed69fee3d461afb8\jetified-FtcCommon-6.1.1\AndroidManifest.xml:160:9-165:20
	android:label
		ADDED from [org.firstinspires.ftc:FtcCommon:6.1.1] C:\Users\daniel\.gradle\caches\transforms-2\files-2.1\8e1e0b436de64edfed69fee3d461afb8\jetified-FtcCommon-6.1.1\AndroidManifest.xml:163:13-66
	android:windowSoftInputMode
		ADDED from [org.firstinspires.ftc:FtcCommon:6.1.1] C:\Users\daniel\.gradle\caches\transforms-2\files-2.1\8e1e0b436de64edfed69fee3d461afb8\jetified-FtcCommon-6.1.1\AndroidManifest.xml:164:13-67
	android:configChanges
		ADDED from [org.firstinspires.ftc:FtcCommon:6.1.1] C:\Users\daniel\.gradle\caches\transforms-2\files-2.1\8e1e0b436de64edfed69fee3d461afb8\jetified-FtcCommon-6.1.1\AndroidManifest.xml:162:13-59
	android:name
		ADDED from [org.firstinspires.ftc:FtcCommon:6.1.1] C:\Users\daniel\.gradle\caches\transforms-2\files-2.1\8e1e0b436de64edfed69fee3d461afb8\jetified-FtcCommon-6.1.1\AndroidManifest.xml:161:13-90
activity#com.qualcomm.ftccommon.configuration.EditWebcamActivity
ADDED from [org.firstinspires.ftc:FtcCommon:6.1.1] C:\Users\daniel\.gradle\caches\transforms-2\files-2.1\8e1e0b436de64edfed69fee3d461afb8\jetified-FtcCommon-6.1.1\AndroidManifest.xml:166:9-171:20
	android:label
		ADDED from [org.firstinspires.ftc:FtcCommon:6.1.1] C:\Users\daniel\.gradle\caches\transforms-2\files-2.1\8e1e0b436de64edfed69fee3d461afb8\jetified-FtcCommon-6.1.1\AndroidManifest.xml:169:13-57
	android:windowSoftInputMode
		ADDED from [org.firstinspires.ftc:FtcCommon:6.1.1] C:\Users\daniel\.gradle\caches\transforms-2\files-2.1\8e1e0b436de64edfed69fee3d461afb8\jetified-FtcCommon-6.1.1\AndroidManifest.xml:170:13-67
	android:configChanges
		ADDED from [org.firstinspires.ftc:FtcCommon:6.1.1] C:\Users\daniel\.gradle\caches\transforms-2\files-2.1\8e1e0b436de64edfed69fee3d461afb8\jetified-FtcCommon-6.1.1\AndroidManifest.xml:168:13-59
	android:name
		ADDED from [org.firstinspires.ftc:FtcCommon:6.1.1] C:\Users\daniel\.gradle\caches\transforms-2\files-2.1\8e1e0b436de64edfed69fee3d461afb8\jetified-FtcCommon-6.1.1\AndroidManifest.xml:167:13-83
activity#com.qualcomm.ftccommon.configuration.EditPWMDevicesActivity
ADDED from [org.firstinspires.ftc:FtcCommon:6.1.1] C:\Users\daniel\.gradle\caches\transforms-2\files-2.1\8e1e0b436de64edfed69fee3d461afb8\jetified-FtcCommon-6.1.1\AndroidManifest.xml:172:9-177:20
	android:label
		ADDED from [org.firstinspires.ftc:FtcCommon:6.1.1] C:\Users\daniel\.gradle\caches\transforms-2\files-2.1\8e1e0b436de64edfed69fee3d461afb8\jetified-FtcCommon-6.1.1\AndroidManifest.xml:175:13-62
	android:windowSoftInputMode
		ADDED from [org.firstinspires.ftc:FtcCommon:6.1.1] C:\Users\daniel\.gradle\caches\transforms-2\files-2.1\8e1e0b436de64edfed69fee3d461afb8\jetified-FtcCommon-6.1.1\AndroidManifest.xml:176:13-67
	android:configChanges
		ADDED from [org.firstinspires.ftc:FtcCommon:6.1.1] C:\Users\daniel\.gradle\caches\transforms-2\files-2.1\8e1e0b436de64edfed69fee3d461afb8\jetified-FtcCommon-6.1.1\AndroidManifest.xml:174:13-59
	android:name
		ADDED from [org.firstinspires.ftc:FtcCommon:6.1.1] C:\Users\daniel\.gradle\caches\transforms-2\files-2.1\8e1e0b436de64edfed69fee3d461afb8\jetified-FtcCommon-6.1.1\AndroidManifest.xml:173:13-87
activity#com.qualcomm.ftccommon.configuration.EditAnalogInputDevicesActivity
ADDED from [org.firstinspires.ftc:FtcCommon:6.1.1] C:\Users\daniel\.gradle\caches\transforms-2\files-2.1\8e1e0b436de64edfed69fee3d461afb8\jetified-FtcCommon-6.1.1\AndroidManifest.xml:178:9-183:20
	android:label
		ADDED from [org.firstinspires.ftc:FtcCommon:6.1.1] C:\Users\daniel\.gradle\caches\transforms-2\files-2.1\8e1e0b436de64edfed69fee3d461afb8\jetified-FtcCommon-6.1.1\AndroidManifest.xml:181:13-71
	android:windowSoftInputMode
		ADDED from [org.firstinspires.ftc:FtcCommon:6.1.1] C:\Users\daniel\.gradle\caches\transforms-2\files-2.1\8e1e0b436de64edfed69fee3d461afb8\jetified-FtcCommon-6.1.1\AndroidManifest.xml:182:13-67
	android:configChanges
		ADDED from [org.firstinspires.ftc:FtcCommon:6.1.1] C:\Users\daniel\.gradle\caches\transforms-2\files-2.1\8e1e0b436de64edfed69fee3d461afb8\jetified-FtcCommon-6.1.1\AndroidManifest.xml:180:13-59
	android:name
		ADDED from [org.firstinspires.ftc:FtcCommon:6.1.1] C:\Users\daniel\.gradle\caches\transforms-2\files-2.1\8e1e0b436de64edfed69fee3d461afb8\jetified-FtcCommon-6.1.1\AndroidManifest.xml:179:13-95
activity#com.qualcomm.ftccommon.configuration.EditDigitalDevicesActivity
ADDED from [org.firstinspires.ftc:FtcCommon:6.1.1] C:\Users\daniel\.gradle\caches\transforms-2\files-2.1\8e1e0b436de64edfed69fee3d461afb8\jetified-FtcCommon-6.1.1\AndroidManifest.xml:184:9-189:20
	android:label
		ADDED from [org.firstinspires.ftc:FtcCommon:6.1.1] C:\Users\daniel\.gradle\caches\transforms-2\files-2.1\8e1e0b436de64edfed69fee3d461afb8\jetified-FtcCommon-6.1.1\AndroidManifest.xml:187:13-66
	android:windowSoftInputMode
		ADDED from [org.firstinspires.ftc:FtcCommon:6.1.1] C:\Users\daniel\.gradle\caches\transforms-2\files-2.1\8e1e0b436de64edfed69fee3d461afb8\jetified-FtcCommon-6.1.1\AndroidManifest.xml:188:13-67
	android:configChanges
		ADDED from [org.firstinspires.ftc:FtcCommon:6.1.1] C:\Users\daniel\.gradle\caches\transforms-2\files-2.1\8e1e0b436de64edfed69fee3d461afb8\jetified-FtcCommon-6.1.1\AndroidManifest.xml:186:13-59
	android:name
		ADDED from [org.firstinspires.ftc:FtcCommon:6.1.1] C:\Users\daniel\.gradle\caches\transforms-2\files-2.1\8e1e0b436de64edfed69fee3d461afb8\jetified-FtcCommon-6.1.1\AndroidManifest.xml:185:13-91
activity#com.qualcomm.ftccommon.configuration.EditDigitalDevicesActivityLynx
ADDED from [org.firstinspires.ftc:FtcCommon:6.1.1] C:\Users\daniel\.gradle\caches\transforms-2\files-2.1\8e1e0b436de64edfed69fee3d461afb8\jetified-FtcCommon-6.1.1\AndroidManifest.xml:190:9-195:20
	android:label
		ADDED from [org.firstinspires.ftc:FtcCommon:6.1.1] C:\Users\daniel\.gradle\caches\transforms-2\files-2.1\8e1e0b436de64edfed69fee3d461afb8\jetified-FtcCommon-6.1.1\AndroidManifest.xml:193:13-71
	android:windowSoftInputMode
		ADDED from [org.firstinspires.ftc:FtcCommon:6.1.1] C:\Users\daniel\.gradle\caches\transforms-2\files-2.1\8e1e0b436de64edfed69fee3d461afb8\jetified-FtcCommon-6.1.1\AndroidManifest.xml:194:13-67
	android:configChanges
		ADDED from [org.firstinspires.ftc:FtcCommon:6.1.1] C:\Users\daniel\.gradle\caches\transforms-2\files-2.1\8e1e0b436de64edfed69fee3d461afb8\jetified-FtcCommon-6.1.1\AndroidManifest.xml:192:13-59
	android:name
		ADDED from [org.firstinspires.ftc:FtcCommon:6.1.1] C:\Users\daniel\.gradle\caches\transforms-2\files-2.1\8e1e0b436de64edfed69fee3d461afb8\jetified-FtcCommon-6.1.1\AndroidManifest.xml:191:13-95
activity#com.qualcomm.ftccommon.configuration.EditI2cDevicesActivity
ADDED from [org.firstinspires.ftc:FtcCommon:6.1.1] C:\Users\daniel\.gradle\caches\transforms-2\files-2.1\8e1e0b436de64edfed69fee3d461afb8\jetified-FtcCommon-6.1.1\AndroidManifest.xml:196:9-201:20
	android:label
		ADDED from [org.firstinspires.ftc:FtcCommon:6.1.1] C:\Users\daniel\.gradle\caches\transforms-2\files-2.1\8e1e0b436de64edfed69fee3d461afb8\jetified-FtcCommon-6.1.1\AndroidManifest.xml:199:13-62
	android:windowSoftInputMode
		ADDED from [org.firstinspires.ftc:FtcCommon:6.1.1] C:\Users\daniel\.gradle\caches\transforms-2\files-2.1\8e1e0b436de64edfed69fee3d461afb8\jetified-FtcCommon-6.1.1\AndroidManifest.xml:200:13-67
	android:configChanges
		ADDED from [org.firstinspires.ftc:FtcCommon:6.1.1] C:\Users\daniel\.gradle\caches\transforms-2\files-2.1\8e1e0b436de64edfed69fee3d461afb8\jetified-FtcCommon-6.1.1\AndroidManifest.xml:198:13-59
	android:name
		ADDED from [org.firstinspires.ftc:FtcCommon:6.1.1] C:\Users\daniel\.gradle\caches\transforms-2\files-2.1\8e1e0b436de64edfed69fee3d461afb8\jetified-FtcCommon-6.1.1\AndroidManifest.xml:197:13-87
activity#com.qualcomm.ftccommon.configuration.EditI2cDevicesActivityLynx
ADDED from [org.firstinspires.ftc:FtcCommon:6.1.1] C:\Users\daniel\.gradle\caches\transforms-2\files-2.1\8e1e0b436de64edfed69fee3d461afb8\jetified-FtcCommon-6.1.1\AndroidManifest.xml:202:9-207:20
	android:label
		ADDED from [org.firstinspires.ftc:FtcCommon:6.1.1] C:\Users\daniel\.gradle\caches\transforms-2\files-2.1\8e1e0b436de64edfed69fee3d461afb8\jetified-FtcCommon-6.1.1\AndroidManifest.xml:205:13-62
	android:windowSoftInputMode
		ADDED from [org.firstinspires.ftc:FtcCommon:6.1.1] C:\Users\daniel\.gradle\caches\transforms-2\files-2.1\8e1e0b436de64edfed69fee3d461afb8\jetified-FtcCommon-6.1.1\AndroidManifest.xml:206:13-67
	android:configChanges
		ADDED from [org.firstinspires.ftc:FtcCommon:6.1.1] C:\Users\daniel\.gradle\caches\transforms-2\files-2.1\8e1e0b436de64edfed69fee3d461afb8\jetified-FtcCommon-6.1.1\AndroidManifest.xml:204:13-59
	android:name
		ADDED from [org.firstinspires.ftc:FtcCommon:6.1.1] C:\Users\daniel\.gradle\caches\transforms-2\files-2.1\8e1e0b436de64edfed69fee3d461afb8\jetified-FtcCommon-6.1.1\AndroidManifest.xml:203:13-91
activity#com.qualcomm.ftccommon.configuration.EditAnalogOutputDevicesActivity
ADDED from [org.firstinspires.ftc:FtcCommon:6.1.1] C:\Users\daniel\.gradle\caches\transforms-2\files-2.1\8e1e0b436de64edfed69fee3d461afb8\jetified-FtcCommon-6.1.1\AndroidManifest.xml:208:9-213:20
	android:label
		ADDED from [org.firstinspires.ftc:FtcCommon:6.1.1] C:\Users\daniel\.gradle\caches\transforms-2\files-2.1\8e1e0b436de64edfed69fee3d461afb8\jetified-FtcCommon-6.1.1\AndroidManifest.xml:211:13-72
	android:windowSoftInputMode
		ADDED from [org.firstinspires.ftc:FtcCommon:6.1.1] C:\Users\daniel\.gradle\caches\transforms-2\files-2.1\8e1e0b436de64edfed69fee3d461afb8\jetified-FtcCommon-6.1.1\AndroidManifest.xml:212:13-67
	android:configChanges
		ADDED from [org.firstinspires.ftc:FtcCommon:6.1.1] C:\Users\daniel\.gradle\caches\transforms-2\files-2.1\8e1e0b436de64edfed69fee3d461afb8\jetified-FtcCommon-6.1.1\AndroidManifest.xml:210:13-59
	android:name
		ADDED from [org.firstinspires.ftc:FtcCommon:6.1.1] C:\Users\daniel\.gradle\caches\transforms-2\files-2.1\8e1e0b436de64edfed69fee3d461afb8\jetified-FtcCommon-6.1.1\AndroidManifest.xml:209:13-96
receiver#org.firstinspires.ftc.ftccommon.internal.RunOnBoot
ADDED from [org.firstinspires.ftc:FtcCommon:6.1.1] C:\Users\daniel\.gradle\caches\transforms-2\files-2.1\8e1e0b436de64edfed69fee3d461afb8\jetified-FtcCommon-6.1.1\AndroidManifest.xml:216:9-227:20
	android:enabled
		ADDED from [org.firstinspires.ftc:FtcCommon:6.1.1] C:\Users\daniel\.gradle\caches\transforms-2\files-2.1\8e1e0b436de64edfed69fee3d461afb8\jetified-FtcCommon-6.1.1\AndroidManifest.xml:218:13-35
	android:exported
		ADDED from [org.firstinspires.ftc:FtcCommon:6.1.1] C:\Users\daniel\.gradle\caches\transforms-2\files-2.1\8e1e0b436de64edfed69fee3d461afb8\jetified-FtcCommon-6.1.1\AndroidManifest.xml:219:13-36
	android:permission
		ADDED from [org.firstinspires.ftc:FtcCommon:6.1.1] C:\Users\daniel\.gradle\caches\transforms-2\files-2.1\8e1e0b436de64edfed69fee3d461afb8\jetified-FtcCommon-6.1.1\AndroidManifest.xml:220:13-75
	android:name
		ADDED from [org.firstinspires.ftc:FtcCommon:6.1.1] C:\Users\daniel\.gradle\caches\transforms-2\files-2.1\8e1e0b436de64edfed69fee3d461afb8\jetified-FtcCommon-6.1.1\AndroidManifest.xml:217:13-78
intent-filter#action:name:android.intent.action.BOOT_COMPLETED+action:name:android.intent.action.QUICKBOOT_POWERON+category:name:android.intent.category.DEFAULT
ADDED from [org.firstinspires.ftc:FtcCommon:6.1.1] C:\Users\daniel\.gradle\caches\transforms-2\files-2.1\8e1e0b436de64edfed69fee3d461afb8\jetified-FtcCommon-6.1.1\AndroidManifest.xml:221:13-226:29
category#android.intent.category.DEFAULT
ADDED from [org.firstinspires.ftc:FtcCommon:6.1.1] C:\Users\daniel\.gradle\caches\transforms-2\files-2.1\8e1e0b436de64edfed69fee3d461afb8\jetified-FtcCommon-6.1.1\AndroidManifest.xml:222:17-76
	android:name
		ADDED from [org.firstinspires.ftc:FtcCommon:6.1.1] C:\Users\daniel\.gradle\caches\transforms-2\files-2.1\8e1e0b436de64edfed69fee3d461afb8\jetified-FtcCommon-6.1.1\AndroidManifest.xml:222:27-73
action#android.intent.action.BOOT_COMPLETED
ADDED from [org.firstinspires.ftc:FtcCommon:6.1.1] C:\Users\daniel\.gradle\caches\transforms-2\files-2.1\8e1e0b436de64edfed69fee3d461afb8\jetified-FtcCommon-6.1.1\AndroidManifest.xml:224:17-79
	android:name
		ADDED from [org.firstinspires.ftc:FtcCommon:6.1.1] C:\Users\daniel\.gradle\caches\transforms-2\files-2.1\8e1e0b436de64edfed69fee3d461afb8\jetified-FtcCommon-6.1.1\AndroidManifest.xml:224:25-76
action#android.intent.action.QUICKBOOT_POWERON
ADDED from [org.firstinspires.ftc:FtcCommon:6.1.1] C:\Users\daniel\.gradle\caches\transforms-2\files-2.1\8e1e0b436de64edfed69fee3d461afb8\jetified-FtcCommon-6.1.1\AndroidManifest.xml:225:17-82
	android:name
		ADDED from [org.firstinspires.ftc:FtcCommon:6.1.1] C:\Users\daniel\.gradle\caches\transforms-2\files-2.1\8e1e0b436de64edfed69fee3d461afb8\jetified-FtcCommon-6.1.1\AndroidManifest.xml:225:25-79
service#org.firstinspires.ftc.ftccommon.internal.FtcRobotControllerWatchdogService
ADDED from [org.firstinspires.ftc:FtcCommon:6.1.1] C:\Users\daniel\.gradle\caches\transforms-2\files-2.1\8e1e0b436de64edfed69fee3d461afb8\jetified-FtcCommon-6.1.1\AndroidManifest.xml:230:9-232:38
	android:enabled
		ADDED from [org.firstinspires.ftc:FtcCommon:6.1.1] C:\Users\daniel\.gradle\caches\transforms-2\files-2.1\8e1e0b436de64edfed69fee3d461afb8\jetified-FtcCommon-6.1.1\AndroidManifest.xml:232:13-35
	android:name
		ADDED from [org.firstinspires.ftc:FtcCommon:6.1.1] C:\Users\daniel\.gradle\caches\transforms-2\files-2.1\8e1e0b436de64edfed69fee3d461afb8\jetified-FtcCommon-6.1.1\AndroidManifest.xml:231:13-102
uses-permission#android.permission.BLUETOOTH_ADMIN
ADDED from [org.firstinspires.ftc:Inspection:6.1.1] C:\Users\daniel\.gradle\caches\transforms-2\files-2.1\475cdf6e60918154a87a9336488dabc3\jetified-Inspection-6.1.1\AndroidManifest.xml:12:5-74
	android:name
		ADDED from [org.firstinspires.ftc:Inspection:6.1.1] C:\Users\daniel\.gradle\caches\transforms-2\files-2.1\475cdf6e60918154a87a9336488dabc3\jetified-Inspection-6.1.1\AndroidManifest.xml:12:22-71
activity#org.firstinspires.inspection.DsInspectionActivity
ADDED from [org.firstinspires.ftc:Inspection:6.1.1] C:\Users\daniel\.gradle\caches\transforms-2\files-2.1\475cdf6e60918154a87a9336488dabc3\jetified-Inspection-6.1.1\AndroidManifest.xml:20:9-24:20
	android:label
		ADDED from [org.firstinspires.ftc:Inspection:6.1.1] C:\Users\daniel\.gradle\caches\transforms-2\files-2.1\475cdf6e60918154a87a9336488dabc3\jetified-Inspection-6.1.1\AndroidManifest.xml:23:13-56
	android:configChanges
		ADDED from [org.firstinspires.ftc:Inspection:6.1.1] C:\Users\daniel\.gradle\caches\transforms-2\files-2.1\475cdf6e60918154a87a9336488dabc3\jetified-Inspection-6.1.1\AndroidManifest.xml:22:13-59
	android:name
		ADDED from [org.firstinspires.ftc:Inspection:6.1.1] C:\Users\daniel\.gradle\caches\transforms-2\files-2.1\475cdf6e60918154a87a9336488dabc3\jetified-Inspection-6.1.1\AndroidManifest.xml:21:13-77
activity#org.firstinspires.inspection.RcInspectionActivity
ADDED from [org.firstinspires.ftc:Inspection:6.1.1] C:\Users\daniel\.gradle\caches\transforms-2\files-2.1\475cdf6e60918154a87a9336488dabc3\jetified-Inspection-6.1.1\AndroidManifest.xml:25:9-29:20
	android:label
		ADDED from [org.firstinspires.ftc:Inspection:6.1.1] C:\Users\daniel\.gradle\caches\transforms-2\files-2.1\475cdf6e60918154a87a9336488dabc3\jetified-Inspection-6.1.1\AndroidManifest.xml:28:13-56
	android:configChanges
		ADDED from [org.firstinspires.ftc:Inspection:6.1.1] C:\Users\daniel\.gradle\caches\transforms-2\files-2.1\475cdf6e60918154a87a9336488dabc3\jetified-Inspection-6.1.1\AndroidManifest.xml:27:13-59
	android:name
		ADDED from [org.firstinspires.ftc:Inspection:6.1.1] C:\Users\daniel\.gradle\caches\transforms-2\files-2.1\475cdf6e60918154a87a9336488dabc3\jetified-Inspection-6.1.1\AndroidManifest.xml:26:13-77
activity#org.firstinspires.ftc.ftccommon.internal.ProgramAndManageActivity
ADDED from [org.firstinspires.ftc:Blocks:6.1.1] C:\Users\daniel\.gradle\caches\transforms-2\files-2.1\b765f1f17f7b83be2b0cc4c0ffbfa067\jetified-Blocks-6.1.1\AndroidManifest.xml:19:9-23:20
	android:label
		ADDED from [org.firstinspires.ftc:Blocks:6.1.1] C:\Users\daniel\.gradle\caches\transforms-2\files-2.1\b765f1f17f7b83be2b0cc4c0ffbfa067\jetified-Blocks-6.1.1\AndroidManifest.xml:22:13-64
	android:configChanges
		ADDED from [org.firstinspires.ftc:Blocks:6.1.1] C:\Users\daniel\.gradle\caches\transforms-2\files-2.1\b765f1f17f7b83be2b0cc4c0ffbfa067\jetified-Blocks-6.1.1\AndroidManifest.xml:21:13-59
	android:name
		ADDED from [org.firstinspires.ftc:Blocks:6.1.1] C:\Users\daniel\.gradle\caches\transforms-2\files-2.1\b765f1f17f7b83be2b0cc4c0ffbfa067\jetified-Blocks-6.1.1\AndroidManifest.xml:20:13-93
